module gitlab.com/thomasdstewart/tomsweb

go 1.15

require (
	github.com/HugoBlox/hugo-blox-builder/modules/blox-bootstrap/v5 v5.9.6
	github.com/HugoBlox/hugo-blox-builder/modules/blox-plugin-netlify v1.1.2-0.20231108141515-0478cf6921f9
	github.com/HugoBlox/hugo-blox-builder/modules/blox-plugin-reveal v1.1.2
)
