%!PS-Adobe-3.0
%%Creator: graphviz version 2.26.3 (20100126.1600)
%%Title: G
%%Pages: (atend)
%%BoundingBox: (atend)
%%EndComments
save
%%BeginProlog
/DotDict 200 dict def
DotDict begin

/setupLatin1 {
mark
/EncodingVector 256 array def
 EncodingVector 0

ISOLatin1Encoding 0 255 getinterval putinterval
EncodingVector 45 /hyphen put

% Set up ISO Latin 1 character encoding
/starnetISO {
        dup dup findfont dup length dict begin
        { 1 index /FID ne { def }{ pop pop } ifelse
        } forall
        /Encoding EncodingVector def
        currentdict end definefont
} def
/Times-Roman starnetISO def
/Times-Italic starnetISO def
/Times-Bold starnetISO def
/Times-BoldItalic starnetISO def
/Helvetica starnetISO def
/Helvetica-Oblique starnetISO def
/Helvetica-Bold starnetISO def
/Helvetica-BoldOblique starnetISO def
/Courier starnetISO def
/Courier-Oblique starnetISO def
/Courier-Bold starnetISO def
/Courier-BoldOblique starnetISO def
cleartomark
} bind def

%%BeginResource: procset graphviz 0 0
/coord-font-family /Times-Roman def
/default-font-family /Times-Roman def
/coordfont coord-font-family findfont 8 scalefont def

/InvScaleFactor 1.0 def
/set_scale {
       dup 1 exch div /InvScaleFactor exch def
       scale
} bind def

% styles
/solid { [] 0 setdash } bind def
/dashed { [9 InvScaleFactor mul dup ] 0 setdash } bind def
/dotted { [1 InvScaleFactor mul 6 InvScaleFactor mul] 0 setdash } bind def
/invis {/fill {newpath} def /stroke {newpath} def /show {pop newpath} def} bind def
/bold { 2 setlinewidth } bind def
/filled { } bind def
/unfilled { } bind def
/rounded { } bind def
/diagonals { } bind def

% hooks for setting color 
/nodecolor { sethsbcolor } bind def
/edgecolor { sethsbcolor } bind def
/graphcolor { sethsbcolor } bind def
/nopcolor {pop pop pop} bind def

/beginpage {	% i j npages
	/npages exch def
	/j exch def
	/i exch def
	/str 10 string def
	npages 1 gt {
		gsave
			coordfont setfont
			0 0 moveto
			(\() show i str cvs show (,) show j str cvs show (\)) show
		grestore
	} if
} bind def

/set_font {
	findfont exch
	scalefont setfont
} def

% draw text fitted to its expected width
/alignedtext {			% width text
	/text exch def
	/width exch def
	gsave
		width 0 gt {
			[] 0 setdash
			text stringwidth pop width exch sub text length div 0 text ashow
		} if
	grestore
} def

/boxprim {				% xcorner ycorner xsize ysize
		4 2 roll
		moveto
		2 copy
		exch 0 rlineto
		0 exch rlineto
		pop neg 0 rlineto
		closepath
} bind def

/ellipse_path {
	/ry exch def
	/rx exch def
	/y exch def
	/x exch def
	matrix currentmatrix
	newpath
	x y translate
	rx ry scale
	0 0 1 0 360 arc
	setmatrix
} bind def

/endpage { showpage } bind def
/showpage { } def

/layercolorseq
	[	% layer color sequence - darkest to lightest
		[0 0 0]
		[.2 .8 .8]
		[.4 .8 .8]
		[.6 .8 .8]
		[.8 .8 .8]
	]
def

/layerlen layercolorseq length def

/setlayer {/maxlayer exch def /curlayer exch def
	layercolorseq curlayer 1 sub layerlen mod get
	aload pop sethsbcolor
	/nodecolor {nopcolor} def
	/edgecolor {nopcolor} def
	/graphcolor {nopcolor} def
} bind def

/onlayer { curlayer ne {invis} if } def

/onlayers {
	/myupper exch def
	/mylower exch def
	curlayer mylower lt
	curlayer myupper gt
	or
	{invis} if
} def

/curlayer 0 def

%%EndResource
%%EndProlog
%%BeginSetup
14 default-font-family set_font
1 setmiterlimit
% /arrowlength 10 def
% /arrowwidth 5 def

% make sure pdfmark is harmless for PS-interpreters other than Distiller
/pdfmark where {pop} {userdict /pdfmark /cleartomark load put} ifelse
% make '<<' and '>>' safe on PS Level 1 devices
/languagelevel where {pop languagelevel}{1} ifelse
2 lt {
    userdict (<<) cvn ([) cvn load put
    userdict (>>) cvn ([) cvn load put
} if

%%EndSetup
setupLatin1
%%Page: 1 1
%%PageBoundingBox: 36 36 19775 19409
%%PageOrientation: Portrait
0 0 1 beginpage
gsave
36 36 19739 19373 boxprim clip newpath
1 1 set_scale 0 rotate 40 41 translate
% 2001 A Space Odyssey (1968)
gsave
1 setlinewidth
0 0 0 nodecolor
1957.78 3996.91 159.1 18.38 ellipse_path stroke
0 0 0 nodecolor
14 /Times-Roman set_font
1853.28 3993.31 moveto 209 (2001 A Space Odyssey \(1968\)) alignedtext
grestore
% Where Eagles Dare (1968)
gsave
1 setlinewidth
0 0 0 nodecolor
727.27 6283.59 142.13 18.38 ellipse_path stroke
0 0 0 nodecolor
14 /Times-Roman set_font
634.77 6279.99 moveto 185 (Where Eagles Dare \(1968\)) alignedtext
grestore
% 2001 A Space Odyssey (1968)->Where Eagles Dare (1968)
gsave
1 setlinewidth
0 0 0 edgecolor
newpath 1947.7 4015.65 moveto
1838.34 4218.87 873.96 6011 742.16 6255.91 curveto
stroke
0 0 0 edgecolor
newpath 738.99 6254.43 moveto
737.33 6264.89 lineto
745.15 6257.74 lineto
closepath fill
1 setlinewidth
solid
0 0 0 edgecolor
newpath 738.99 6254.43 moveto
737.33 6264.89 lineto
745.15 6257.74 lineto
closepath stroke
grestore
% Blazing Saddles (1974)
gsave
1 setlinewidth
0 0 0 nodecolor
4454.45 17754.68 123.95 18.38 ellipse_path stroke
0 0 0 nodecolor
14 /Times-Roman set_font
4374.45 17751.08 moveto 160 (Blazing Saddles \(1974\)) alignedtext
grestore
% 2001 A Space Odyssey (1968)->Blazing Saddles (1974)
gsave
1 setlinewidth
0 0 0 edgecolor
newpath 1961.19 4015.69 moveto
2061.11 4566.3 4325.98 17046.74 4449.23 17725.91 curveto
stroke
0 0 0 edgecolor
newpath 4445.81 17726.66 moveto
4451.04 17735.88 lineto
4452.7 17725.41 lineto
closepath fill
1 setlinewidth
solid
0 0 0 edgecolor
newpath 4445.81 17726.66 moveto
4451.04 17735.88 lineto
4452.7 17725.41 lineto
closepath stroke
grestore
% Romeo + Juliet (1996)
gsave
1 setlinewidth
0 0 0 nodecolor
3752.3 2120 120.21 18.38 ellipse_path stroke
0 0 0 nodecolor
14 /Times-Roman set_font
3675.3 2116.4 moveto 154 (Romeo + Juliet \(1996\)) alignedtext
grestore
% 2001 A Space Odyssey (1968)->Romeo + Juliet (1996)
gsave
1 setlinewidth
0 0 0 edgecolor
newpath 1975.55 3978.33 moveto
2148.23 3797.72 3526.21 2356.47 3727.74 2145.69 curveto
stroke
0 0 0 edgecolor
newpath 3730.28 2148.09 moveto
3734.66 2138.44 lineto
3725.22 2143.25 lineto
closepath fill
1 setlinewidth
solid
0 0 0 edgecolor
newpath 3730.28 2148.09 moveto
3734.66 2138.44 lineto
3725.22 2143.25 lineto
closepath stroke
grestore
% The Shawshank Redemption (1994)
gsave
1 setlinewidth
0 0 0 nodecolor
7630.67 19112.27 186.88 18.38 ellipse_path stroke
0 0 0 nodecolor
14 /Times-Roman set_font
7506.17 19108.67 moveto 249 (The Shawshank Redemption \(1994\)) alignedtext
grestore
% Where Eagles Dare (1968)->The Shawshank Redemption (1994)
gsave
1 setlinewidth
0 0 0 edgecolor
newpath 737.34 6302.31 moveto
1022.48 6832.18 7269.67 18441.4 7615.74 19084.51 curveto
stroke
0 0 0 edgecolor
newpath 7612.79 19086.43 moveto
7620.62 19093.58 lineto
7618.96 19083.11 lineto
closepath fill
1 setlinewidth
solid
0 0 0 edgecolor
newpath 7612.79 19086.43 moveto
7620.62 19093.58 lineto
7618.96 19083.11 lineto
closepath stroke
grestore
% Catch Me If You Can (2002)
gsave
1 setlinewidth
0 0 0 nodecolor
17067.1 16046.19 145.16 18.38 ellipse_path stroke
0 0 0 nodecolor
14 /Times-Roman set_font
16972.1 16042.59 moveto 190 (Catch Me If You Can \(2002\)) alignedtext
grestore
% Where Eagles Dare (1968)->Catch Me If You Can (2002)
gsave
1 setlinewidth
0 0 0 edgecolor
newpath 757.75 6301.8 moveto
1515.91 6754.78 16172.64 15511.77 17028.12 16022.89 curveto
stroke
0 0 0 edgecolor
newpath 17026.33 16025.9 moveto
17036.71 16028.03 lineto
17029.92 16019.9 lineto
closepath fill
1 setlinewidth
solid
0 0 0 edgecolor
newpath 17026.33 16025.9 moveto
17036.71 16028.03 lineto
17029.92 16019.9 lineto
closepath stroke
grestore
% Schindler's List (1993)
gsave
1 setlinewidth
0 0 0 nodecolor
1068.38 5485.52 120.21 18.38 ellipse_path stroke
0 0 0 nodecolor
14 /Times-Roman set_font
991.38 5481.92 moveto 154 (Schindler's List \(1993\)) alignedtext
grestore
% Where Eagles Dare (1968)->Schindler's List (1993)
gsave
1 setlinewidth
0 0 0 edgecolor
newpath 735.2 6265.04 moveto
780.05 6160.11 1001.85 5641.18 1056.29 5513.8 curveto
stroke
0 0 0 edgecolor
newpath 1059.63 5514.9 moveto
1060.34 5504.33 lineto
1053.19 5512.15 lineto
closepath fill
1 setlinewidth
solid
0 0 0 edgecolor
newpath 1059.63 5514.9 moveto
1060.34 5504.33 lineto
1053.19 5512.15 lineto
closepath stroke
grestore
% The Fugitive (1993)
gsave
1 setlinewidth
0 0 0 nodecolor
18838.75 13080.94 108.19 18.38 ellipse_path stroke
0 0 0 nodecolor
14 /Times-Roman set_font
18770.25 13077.34 moveto 137 (The Fugitive \(1993\)) alignedtext
grestore
% Where Eagles Dare (1968)->The Fugitive (1993)
gsave
1 setlinewidth
0 0 0 edgecolor
newpath 774.13 6301.18 moveto
1752.45 6668.35 17731.18 12665.27 18784.27 13060.5 curveto
stroke
0 0 0 edgecolor
newpath 18783.28 13063.87 moveto
18793.87 13064.1 lineto
18785.74 13057.31 lineto
closepath fill
1 setlinewidth
solid
0 0 0 edgecolor
newpath 18783.28 13063.87 moveto
18793.87 13064.1 lineto
18785.74 13057.31 lineto
closepath stroke
grestore
% The Departed (2006)
gsave
1 setlinewidth
0 0 0 nodecolor
459.07 7109.02 114.76 18.38 ellipse_path stroke
0 0 0 nodecolor
14 /Times-Roman set_font
385.57 7105.42 moveto 147 (The Departed \(2006\)) alignedtext
grestore
% Where Eagles Dare (1968)->The Departed (2006)
gsave
1 setlinewidth
0 0 0 edgecolor
newpath 721.16 6302.38 moveto
686.13 6410.21 510.73 6950.04 468.31 7080.57 curveto
stroke
0 0 0 edgecolor
newpath 464.93 7079.67 moveto
465.17 7090.26 lineto
471.58 7081.83 lineto
closepath fill
1 setlinewidth
solid
0 0 0 edgecolor
newpath 464.93 7079.67 moveto
465.17 7090.26 lineto
471.58 7081.83 lineto
closepath stroke
grestore
% Three Colors Blue (1993)
gsave
1 setlinewidth
0 0 0 nodecolor
18086.36 4721.25 135.06 18.38 ellipse_path stroke
0 0 0 nodecolor
14 /Times-Roman set_font
17998.86 4717.65 moveto 175 (Three Colors Blue \(1993\)) alignedtext
grestore
% Little Miss Sunshine (2006)
gsave
1 setlinewidth
0 0 0 nodecolor
18497.64 5485.52 145.16 18.38 ellipse_path stroke
0 0 0 nodecolor
14 /Times-Roman set_font
18402.64 5481.92 moveto 190 (Little Miss Sunshine \(2006\)) alignedtext
grestore
% Three Colors Blue (1993)->Little Miss Sunshine (2006)
gsave
1 setlinewidth
0 0 0 edgecolor
newpath 18096.32 4739.76 moveto
18151.2 4841.75 18416.59 5334.91 18482.7 5457.76 curveto
stroke
0 0 0 edgecolor
newpath 18479.8 5459.77 moveto
18487.62 5466.91 lineto
18485.96 5456.45 lineto
closepath fill
1 setlinewidth
solid
0 0 0 edgecolor
newpath 18479.8 5459.77 moveto
18487.62 5466.91 lineto
18485.96 5456.45 lineto
closepath stroke
grestore
% The Good, the Bad and the Ugly (1966)
gsave
1 setlinewidth
0 0 0 nodecolor
11081.38 97.3 205.06 18.38 ellipse_path stroke
0 0 0 nodecolor
14 /Times-Roman set_font
10944.38 93.7 moveto 274 (The Good, the Bad and the Ugly \(1966\)) alignedtext
grestore
% Three Colors Blue (1993)->The Good, the Bad and the Ugly (1966)
gsave
1 setlinewidth
0 0 0 edgecolor
newpath 18058.86 4703.1 moveto
17603.63 4402.6 11641.39 466.96 11118.01 121.48 curveto
stroke
0 0 0 edgecolor
newpath 11119.6 118.34 moveto
11109.33 115.75 lineto
11115.75 124.18 lineto
closepath fill
1 setlinewidth
solid
0 0 0 edgecolor
newpath 11119.6 118.34 moveto
11109.33 115.75 lineto
11115.75 124.18 lineto
closepath stroke
grestore
% Pulp Fiction (1994)
gsave
1 setlinewidth
0 0 0 nodecolor
17608.23 3996.91 103.94 18.38 ellipse_path stroke
0 0 0 nodecolor
14 /Times-Roman set_font
17542.73 3993.31 moveto 131 (Pulp Fiction \(1994\)) alignedtext
grestore
% Three Colors Blue (1993)->Pulp Fiction (1994)
gsave
1 setlinewidth
0 0 0 edgecolor
newpath 18074.06 4702.61 moveto
18008.81 4603.77 17703.27 4140.89 17626.01 4023.85 curveto
stroke
0 0 0 edgecolor
newpath 17628.88 4021.84 moveto
17620.45 4015.42 lineto
17623.04 4025.69 lineto
closepath fill
1 setlinewidth
solid
0 0 0 edgecolor
newpath 17628.88 4021.84 moveto
17620.45 4015.42 lineto
17623.04 4025.69 lineto
closepath stroke
grestore
% Erin Brockovich (2000)
gsave
1 setlinewidth
0 0 0 nodecolor
9349.05 19.5 123.04 18.38 ellipse_path stroke
0 0 0 nodecolor
14 /Times-Roman set_font
9270.05 15.9 moveto 158 (Erin Brockovich \(2000\)) alignedtext
grestore
% Little Miss Sunshine (2006)->Erin Brockovich (2000)
gsave
1 setlinewidth
0 0 0 edgecolor
newpath 18467.18 5467.33 moveto
17914.23 5136.96 10009.53 414.12 9387.79 42.64 curveto
stroke
0 0 0 edgecolor
newpath 9389.54 39.62 moveto
9379.17 37.49 lineto
9385.95 45.63 lineto
closepath fill
1 setlinewidth
solid
0 0 0 edgecolor
newpath 9389.54 39.62 moveto
9379.17 37.49 lineto
9385.95 45.63 lineto
closepath stroke
grestore
% Clear and Present Danger (1994)
gsave
1 setlinewidth
0 0 0 nodecolor
18838.75 6283.59 174.15 18.38 ellipse_path stroke
0 0 0 nodecolor
14 /Times-Roman set_font
18723.25 6279.99 moveto 231 (Clear and Present Danger \(1994\)) alignedtext
grestore
% Little Miss Sunshine (2006)->Clear and Present Danger (1994)
gsave
1 setlinewidth
0 0 0 edgecolor
newpath 18505.57 5504.08 moveto
18550.42 5609.01 18772.21 6127.93 18826.66 6255.32 curveto
stroke
0 0 0 edgecolor
newpath 18823.56 6256.97 moveto
18830.71 6264.79 lineto
18830 6254.22 lineto
closepath fill
1 setlinewidth
solid
0 0 0 edgecolor
newpath 18823.56 6256.97 moveto
18830.71 6264.79 lineto
18830 6254.22 lineto
closepath stroke
grestore
% Jurassic Park (1993)
gsave
1 setlinewidth
0 0 0 nodecolor
110.5 9682.27 109.1 18.38 ellipse_path stroke
0 0 0 nodecolor
14 /Times-Roman set_font
41 9678.67 moveto 139 (Jurassic Park \(1993\)) alignedtext
grestore
% Taken (2008)
gsave
1 setlinewidth
0 0 0 nodecolor
265.94 11409.36 75.87 18.38 ellipse_path stroke
0 0 0 nodecolor
14 /Times-Roman set_font
219.94 11405.76 moveto 92 (Taken \(2008\)) alignedtext
grestore
% Jurassic Park (1993)->Taken (2008)
gsave
1 setlinewidth
0 0 0 edgecolor
newpath 112.17 9700.78 moveto
127.53 9871.53 244.43 11170.32 263.36 11380.63 curveto
stroke
0 0 0 edgecolor
newpath 259.87 11380.96 moveto
264.25 11390.61 lineto
266.84 11380.33 lineto
closepath fill
1 setlinewidth
solid
0 0 0 edgecolor
newpath 259.87 11380.96 moveto
264.25 11390.61 lineto
266.84 11380.33 lineto
closepath stroke
grestore
% A Good Year (2006)
gsave
1 setlinewidth
0 0 0 nodecolor
149.44 10549.3 106.98 18.38 ellipse_path stroke
0 0 0 nodecolor
14 /Times-Roman set_font
81.44 10545.7 moveto 136 (A Good Year \(2006\)) alignedtext
grestore
% Jurassic Park (1993)->A Good Year (2006)
gsave
1 setlinewidth
0 0 0 edgecolor
newpath 111.33 9700.78 moveto
116.3 9811.41 142.06 10385.01 148.15 10520.57 curveto
stroke
0 0 0 edgecolor
newpath 144.65 10520.77 moveto
148.6 10530.6 lineto
151.65 10520.45 lineto
closepath fill
1 setlinewidth
solid
0 0 0 edgecolor
newpath 144.65 10520.77 moveto
148.6 10530.6 lineto
151.65 10520.45 lineto
closepath stroke
grestore
% Ringu (1998)
gsave
1 setlinewidth
0 0 0 nodecolor
16467.32 16673.51 75.16 18.38 ellipse_path stroke
0 0 0 nodecolor
14 /Times-Roman set_font
16421.82 16669.91 moveto 91 (Ringu \(1998\)) alignedtext
grestore
% Jurassic Park (1993)->Ringu (1998)
gsave
1 setlinewidth
0 0 0 edgecolor
newpath 150.78 9699.48 moveto
1014.46 10068.64 15487.68 16254.79 16420.2 16653.37 curveto
stroke
0 0 0 edgecolor
newpath 16419.06 16656.69 moveto
16429.63 16657.4 lineto
16421.81 16650.25 lineto
closepath fill
1 setlinewidth
solid
0 0 0 edgecolor
newpath 16419.06 16656.69 moveto
16429.63 16657.4 lineto
16421.81 16650.25 lineto
closepath stroke
grestore
% Good Will Hunting (1997)
gsave
1 setlinewidth
0 0 0 nodecolor
265.94 7955.17 137.18 18.38 ellipse_path stroke
0 0 0 nodecolor
14 /Times-Roman set_font
176.94 7951.57 moveto 178 (Good Will Hunting \(1997\)) alignedtext
grestore
% Taken (2008)->Good Will Hunting (1997)
gsave
1 setlinewidth
0 0 0 edgecolor
newpath 265.94 11390.78 moveto
265.94 11134.15 265.94 8301.13 265.94 7983.99 curveto
stroke
0 0 0 edgecolor
newpath 269.44 7983.78 moveto
265.94 7973.78 lineto
262.44 7983.78 lineto
closepath fill
1 setlinewidth
solid
0 0 0 edgecolor
newpath 269.44 7983.78 moveto
265.94 7973.78 lineto
262.44 7983.78 lineto
closepath stroke
grestore
% Planes, Trains & Automobiles (1987)
gsave
1 setlinewidth
0 0 0 nodecolor
459.07 12255.51 188.8 18.38 ellipse_path stroke
0 0 0 nodecolor
14 /Times-Roman set_font
333.57 12251.91 moveto 251 (Planes, Trains & Automobiles \(1987\)) alignedtext
grestore
% Taken (2008)->Planes, Trains & Automobiles (1987)
gsave
1 setlinewidth
0 0 0 edgecolor
newpath 270.25 11428.22 moveto
295.31 11538.02 422.35 12094.61 452.6 12227.15 curveto
stroke
0 0 0 edgecolor
newpath 449.2 12228 moveto
454.84 12236.97 lineto
456.02 12226.44 lineto
closepath fill
1 setlinewidth
solid
0 0 0 edgecolor
newpath 449.2 12228 moveto
454.84 12236.97 lineto
456.02 12226.44 lineto
closepath stroke
grestore
% Taken (2008)->A Good Year (2006)
gsave
1 setlinewidth
0 0 0 edgecolor
newpath 263.4 11390.6 moveto
248.4 11279.86 171.47 10711.95 153.29 10577.75 curveto
stroke
0 0 0 edgecolor
newpath 156.76 10577.26 moveto
151.95 10567.82 lineto
149.82 10578.2 lineto
closepath fill
1 setlinewidth
solid
0 0 0 edgecolor
newpath 156.76 10577.26 moveto
151.95 10567.82 lineto
149.82 10578.2 lineto
closepath stroke
grestore
% Walk the Line (2005)
gsave
1 setlinewidth
0 0 0 nodecolor
149.44 8815.23 115.97 18.38 ellipse_path stroke
0 0 0 nodecolor
14 /Times-Roman set_font
75.44 8811.63 moveto 148 (Walk the Line \(2005\)) alignedtext
grestore
% Walk the Line (2005)->Where Eagles Dare (1968)
gsave
1 setlinewidth
0 0 0 edgecolor
newpath 153.68 8796.66 moveto
202.63 8582.18 660.35 6576.77 720.71 6312.33 curveto
stroke
0 0 0 edgecolor
newpath 724.18 6312.87 moveto
722.99 6302.34 lineto
717.35 6311.31 lineto
closepath fill
1 setlinewidth
solid
0 0 0 edgecolor
newpath 724.18 6312.87 moveto
722.99 6302.34 lineto
717.35 6311.31 lineto
closepath stroke
grestore
% Walk the Line (2005)->Jurassic Park (1993)
gsave
1 setlinewidth
0 0 0 edgecolor
newpath 148.61 8833.74 moveto
143.64 8944.38 117.88 9517.97 111.79 9653.53 curveto
stroke
0 0 0 edgecolor
newpath 108.29 9653.42 moveto
111.34 9663.56 lineto
115.29 9653.73 lineto
closepath fill
1 setlinewidth
solid
0 0 0 edgecolor
newpath 108.29 9653.42 moveto
111.34 9663.56 lineto
115.29 9653.73 lineto
closepath stroke
grestore
% Walk the Line (2005)->Good Will Hunting (1997)
gsave
1 setlinewidth
0 0 0 edgecolor
newpath 151.98 8796.47 moveto
166.98 8685.73 243.91 8117.82 262.09 7983.62 curveto
stroke
0 0 0 edgecolor
newpath 265.56 7984.07 moveto
263.43 7973.69 lineto
258.62 7983.13 lineto
closepath fill
1 setlinewidth
solid
0 0 0 edgecolor
newpath 265.56 7984.07 moveto
263.43 7973.69 lineto
258.62 7983.13 lineto
closepath stroke
grestore
% Blazing Saddles (1974)->Good Will Hunting (1997)
gsave
1 setlinewidth
0 0 0 edgecolor
newpath 4446.49 17736.05 moveto
4250.93 17278.53 517.22 8543.06 277.96 7983.29 curveto
stroke
0 0 0 edgecolor
newpath 281.1 7981.73 moveto
273.95 7973.91 lineto
274.66 7984.48 lineto
closepath fill
1 setlinewidth
solid
0 0 0 edgecolor
newpath 281.1 7981.73 moveto
273.95 7973.91 lineto
274.66 7984.48 lineto
closepath stroke
grestore
% Indiana Jones and the Temple of Doom (1984)
gsave
1 setlinewidth
0 0 0 nodecolor
1479.66 14643.29 234.97 18.38 ellipse_path stroke
0 0 0 nodecolor
14 /Times-Roman set_font
1321.16 14639.69 moveto 317 (Indiana Jones and the Temple of Doom \(1984\)) alignedtext
grestore
% Blazing Saddles (1974)->Indiana Jones and the Temple of Doom (1984)
gsave
1 setlinewidth
0 0 0 edgecolor
newpath 4436.61 17736.02 moveto
4204.25 17492.99 1776.57 14953.83 1504.42 14669.19 curveto
stroke
0 0 0 edgecolor
newpath 1506.79 14666.6 moveto
1497.35 14661.8 lineto
1501.73 14671.44 lineto
closepath fill
1 setlinewidth
solid
0 0 0 edgecolor
newpath 1506.79 14666.6 moveto
1497.35 14661.8 lineto
1501.73 14671.44 lineto
closepath stroke
grestore
% Amlie (2001)
gsave
1 setlinewidth
0 0 0 nodecolor
15813.72 17244.54 74.95 18.38 ellipse_path stroke
0 0 0 nodecolor
14 /Times-Roman set_font
15768.72 17240.94 moveto 90 (Amlie \(2001\)) alignedtext
grestore
% Good Will Hunting (1997)->Amlie (2001)
gsave
1 setlinewidth
0 0 0 edgecolor
newpath 296.35 7973.35 moveto
1034.17 8414.17 14956.84 16732.58 15776.07 17222.05 curveto
stroke
0 0 0 edgecolor
newpath 15774.46 17225.16 moveto
15784.84 17227.28 lineto
15778.05 17219.15 lineto
closepath fill
1 setlinewidth
solid
0 0 0 edgecolor
newpath 15774.46 17225.16 moveto
15784.84 17227.28 lineto
15778.05 17219.15 lineto
closepath stroke
grestore
% Good Will Hunting (1997)->Schindler's List (1993)
gsave
1 setlinewidth
0 0 0 edgecolor
newpath 272.05 7936.37 moveto
341.18 7723.62 974.98 5772.97 1059.16 5513.9 curveto
stroke
0 0 0 edgecolor
newpath 1062.58 5514.7 moveto
1062.34 5504.11 lineto
1055.92 5512.54 lineto
closepath fill
1 setlinewidth
solid
0 0 0 edgecolor
newpath 1062.58 5514.7 moveto
1062.34 5504.11 lineto
1055.92 5512.54 lineto
closepath stroke
grestore
% Terminator 2 Judgment Day (1991)
gsave
1 setlinewidth
0 0 0 nodecolor
7630.67 252.27 183.85 18.38 ellipse_path stroke
0 0 0 nodecolor
14 /Times-Roman set_font
7508.67 248.67 moveto 244 (Terminator 2 Judgment Day \(1991\)) alignedtext
grestore
% Forrest Gump (1994)
gsave
1 setlinewidth
0 0 0 nodecolor
18497.64 13879.01 114.05 18.38 ellipse_path stroke
0 0 0 nodecolor
14 /Times-Roman set_font
18424.64 13875.41 moveto 146 (Forrest Gump \(1994\)) alignedtext
grestore
% Terminator 2 Judgment Day (1991)->Forrest Gump (1994)
gsave
1 setlinewidth
0 0 0 edgecolor
newpath 7645.5 270.87 moveto
8080.85 816.78 17957.81 13202.1 18476.46 13852.46 curveto
stroke
0 0 0 edgecolor
newpath 18473.81 13854.75 moveto
18482.78 13860.38 lineto
18479.28 13850.38 lineto
closepath fill
1 setlinewidth
solid
0 0 0 edgecolor
newpath 18473.81 13854.75 moveto
18482.78 13860.38 lineto
18479.28 13850.38 lineto
closepath stroke
grestore
% Pan's Labyrinth (2006)
gsave
1 setlinewidth
0 0 0 nodecolor
6794.04 483.17 123.04 18.38 ellipse_path stroke
0 0 0 nodecolor
14 /Times-Roman set_font
6715.04 479.57 moveto 158 (Pan's Labyrinth \(2006\)) alignedtext
grestore
% Terminator 2 Judgment Day (1991)->Pan's Labyrinth (2006)
gsave
1 setlinewidth
0 0 0 edgecolor
newpath 7567.45 269.72 moveto
7413.82 312.12 7021.9 420.28 6862.76 464.2 curveto
stroke
0 0 0 edgecolor
newpath 6861.78 460.84 moveto
6853.07 466.87 lineto
6863.65 467.59 lineto
closepath fill
1 setlinewidth
solid
0 0 0 edgecolor
newpath 6861.78 460.84 moveto
6853.07 466.87 lineto
6863.65 467.59 lineto
closepath stroke
grestore
% Notting Hill (1999)
gsave
1 setlinewidth
0 0 0 nodecolor
5199.51 1164.7 103.24 18.38 ellipse_path stroke
0 0 0 nodecolor
14 /Times-Roman set_font
5134.51 1161.1 moveto 130 (Notting Hill \(1999\)) alignedtext
grestore
% Forrest Gump (1994)->Notting Hill (1999)
gsave
1 setlinewidth
0 0 0 edgecolor
newpath 18478.24 13860.46 moveto
17928.43 13334.8 5871.28 1806.98 5226.35 1190.36 curveto
stroke
0 0 0 edgecolor
newpath 5228.53 1187.6 moveto
5218.88 1183.22 lineto
5223.69 1192.66 lineto
closepath fill
1 setlinewidth
solid
0 0 0 edgecolor
newpath 5228.53 1187.6 moveto
5218.88 1183.22 lineto
5223.69 1192.66 lineto
closepath stroke
grestore
% The Big Lebowski (1998)
gsave
1 setlinewidth
0 0 0 nodecolor
19106.95 12255.51 133.14 18.38 ellipse_path stroke
0 0 0 nodecolor
14 /Times-Roman set_font
19020.45 12251.91 moveto 173 (The Big Lebowski \(1998\)) alignedtext
grestore
% Forrest Gump (1994)->The Big Lebowski (1998)
gsave
1 setlinewidth
0 0 0 edgecolor
newpath 18504.58 13860.5 moveto
18566.36 13695.89 19021.04 12484.4 19096.38 12283.65 curveto
stroke
0 0 0 edgecolor
newpath 19099.73 12284.7 moveto
19099.97 12274.11 lineto
19093.17 12282.24 lineto
closepath fill
1 setlinewidth
solid
0 0 0 edgecolor
newpath 19099.73 12284.7 moveto
19099.97 12274.11 lineto
19093.17 12282.24 lineto
closepath stroke
grestore
% The Shining (1980)
gsave
1 setlinewidth
0 0 0 nodecolor
3098.7 16673.51 106.07 18.38 ellipse_path stroke
0 0 0 nodecolor
14 /Times-Roman set_font
3031.7 16669.91 moveto 134 (The Shining \(1980\)) alignedtext
grestore
% Forrest Gump (1994)->The Shining (1980)
gsave
1 setlinewidth
0 0 0 edgecolor
newpath 18421.6 13892.81 moveto
17309.21 14094.68 4347.76 16446.84 3182.39 16658.32 curveto
stroke
0 0 0 edgecolor
newpath 3181.64 16654.9 moveto
3172.42 16660.13 lineto
3182.89 16661.79 lineto
closepath fill
1 setlinewidth
solid
0 0 0 edgecolor
newpath 3181.64 16654.9 moveto
3172.42 16660.13 lineto
3182.89 16661.79 lineto
closepath stroke
grestore
% Clerks. (1994)
gsave
1 setlinewidth
0 0 0 nodecolor
2498.92 3318.35 80.82 18.38 ellipse_path stroke
0 0 0 nodecolor
14 /Times-Roman set_font
2449.42 3314.75 moveto 99 (Clerks. \(1994\)) alignedtext
grestore
% Clerks. (1994)->2001 A Space Odyssey (1968)
gsave
1 setlinewidth
0 0 0 edgecolor
newpath 2484.16 3336.85 moveto
2408.88 3431.25 2067.69 3859.09 1978.94 3970.38 curveto
stroke
0 0 0 edgecolor
newpath 1976.02 3968.42 moveto
1972.53 3978.43 lineto
1981.5 3972.79 lineto
closepath fill
1 setlinewidth
solid
0 0 0 edgecolor
newpath 1976.02 3968.42 moveto
1972.53 3978.43 lineto
1981.5 3972.79 lineto
closepath stroke
grestore
% Clerks. (1994)->Terminator 2 Judgment Day (1991)
gsave
1 setlinewidth
0 0 0 edgecolor
newpath 2528.09 3300.92 moveto
2920.11 3066.7 7137.92 546.68 7591.25 275.82 curveto
stroke
0 0 0 edgecolor
newpath 7593.28 278.69 moveto
7600.07 270.55 lineto
7589.69 272.68 lineto
closepath fill
1 setlinewidth
solid
0 0 0 edgecolor
newpath 7593.28 278.69 moveto
7600.07 270.55 lineto
7589.69 272.68 lineto
closepath stroke
grestore
% Uncle Buck (1989)
gsave
1 setlinewidth
0 0 0 nodecolor
1068.38 13879.01 101.82 18.38 ellipse_path stroke
0 0 0 nodecolor
14 /Times-Roman set_font
1004.38 13875.41 moveto 128 (Uncle Buck \(1989\)) alignedtext
grestore
% Clerks. (1994)->Uncle Buck (1989)
gsave
1 setlinewidth
0 0 0 edgecolor
newpath 2496.4 3336.93 moveto
2432 3812.33 1152.43 13258.49 1072.31 13850.01 curveto
stroke
0 0 0 edgecolor
newpath 1068.79 13849.88 moveto
1070.92 13860.26 lineto
1075.73 13850.82 lineto
closepath fill
1 setlinewidth
solid
0 0 0 edgecolor
newpath 1068.79 13849.88 moveto
1070.92 13860.26 lineto
1075.73 13850.82 lineto
closepath stroke
grestore
% Blade Runner (1982)
gsave
1 setlinewidth
0 0 0 nodecolor
12771.98 18881.37 113.84 18.38 ellipse_path stroke
0 0 0 nodecolor
14 /Times-Roman set_font
12699.48 18877.77 moveto 145 (Blade Runner \(1982\)) alignedtext
grestore
% Clerks. (1994)->Blade Runner (1982)
gsave
1 setlinewidth
0 0 0 edgecolor
newpath 2511.1 3336.81 moveto
2896.32 3920.39 12288.22 18148.51 12754.05 18854.21 curveto
stroke
0 0 0 edgecolor
newpath 12751.27 18856.35 moveto
12759.7 18862.76 lineto
12757.11 18852.49 lineto
closepath fill
1 setlinewidth
solid
0 0 0 edgecolor
newpath 12751.27 18856.35 moveto
12759.7 18862.76 lineto
12757.11 18852.49 lineto
closepath stroke
grestore
% Dr. No (1962)
gsave
1 setlinewidth
0 0 0 nodecolor
15111.56 1609.85 79.2 18.38 ellipse_path stroke
0 0 0 nodecolor
14 /Times-Roman set_font
15063.56 1606.25 moveto 96 (Dr. No \(1962\)) alignedtext
grestore
% Uncle Buck (1989)->Dr. No (1962)
gsave
1 setlinewidth
0 0 0 edgecolor
newpath 1089.32 13860.72 moveto
1675.93 13348.21 14399.26 2232.17 15082.97 1634.83 curveto
stroke
0 0 0 edgecolor
newpath 15085.45 1637.31 moveto
15090.68 1628.1 lineto
15080.84 1632.04 lineto
closepath fill
1 setlinewidth
solid
0 0 0 edgecolor
newpath 15085.45 1637.31 moveto
15090.68 1628.1 lineto
15080.84 1632.04 lineto
closepath stroke
grestore
% Uncle Buck (1989)->Indiana Jones and the Temple of Doom (1984)
gsave
1 setlinewidth
0 0 0 edgecolor
newpath 1078.34 13897.53 moveto
1133.22 13999.51 1398.61 14492.68 1464.72 14615.53 curveto
stroke
0 0 0 edgecolor
newpath 1461.82 14617.53 moveto
1469.64 14624.68 lineto
1467.98 14614.21 lineto
closepath fill
1 setlinewidth
solid
0 0 0 edgecolor
newpath 1461.82 14617.53 moveto
1469.64 14624.68 lineto
1467.98 14614.21 lineto
closepath stroke
grestore
% Spirited Away (2001)
gsave
1 setlinewidth
0 0 0 nodecolor
19416.58 10549.3 115.97 18.38 ellipse_path stroke
0 0 0 nodecolor
14 /Times-Roman set_font
19342.58 10545.7 moveto 148 (Spirited Away \(2001\)) alignedtext
grestore
% Uncle Buck (1989)->Spirited Away (2001)
gsave
1 setlinewidth
0 0 0 edgecolor
newpath 1140.87 13865.86 moveto
2339.55 13648.33 18018.04 10803.1 19329.38 10565.13 curveto
stroke
0 0 0 edgecolor
newpath 19330.44 10568.49 moveto
19339.66 10563.26 lineto
19329.19 10561.61 lineto
closepath fill
1 setlinewidth
solid
0 0 0 edgecolor
newpath 19330.44 10568.49 moveto
19339.66 10563.26 lineto
19329.19 10561.61 lineto
closepath stroke
grestore
% Gone with the Wind (1939)
gsave
1 setlinewidth
0 0 0 nodecolor
11935.34 252.27 147.79 18.38 ellipse_path stroke
0 0 0 nodecolor
14 /Times-Roman set_font
11838.84 248.67 moveto 193 (Gone with the Wind \(1939\)) alignedtext
grestore
% Dr. No (1962)->Gone with the Wind (1939)
gsave
1 setlinewidth
0 0 0 edgecolor
newpath 15073.4 1593.54 moveto
14742.7 1452.19 12365.42 436.1 11986.27 274.04 curveto
stroke
0 0 0 edgecolor
newpath 11987.48 270.75 moveto
11976.91 270.04 lineto
11984.73 277.19 lineto
closepath fill
1 setlinewidth
solid
0 0 0 edgecolor
newpath 11987.48 270.75 moveto
11976.91 270.04 lineto
11984.73 277.19 lineto
closepath stroke
grestore
% Snatch. (2000)
gsave
1 setlinewidth
0 0 0 nodecolor
4454.45 1609.85 84.85 18.38 ellipse_path stroke
0 0 0 nodecolor
14 /Times-Roman set_font
4402.45 1606.25 moveto 104 (Snatch. \(2000\)) alignedtext
grestore
% Notting Hill (1999)->Snatch. (2000)
gsave
1 setlinewidth
0 0 0 edgecolor
newpath 5169.84 1182.43 moveto
5052.89 1252.3 4623.75 1508.7 4492.71 1586.99 curveto
stroke
0 0 0 edgecolor
newpath 4490.59 1584.18 moveto
4483.8 1592.32 lineto
4494.18 1590.19 lineto
closepath fill
1 setlinewidth
solid
0 0 0 edgecolor
newpath 4490.59 1584.18 moveto
4483.8 1592.32 lineto
4494.18 1590.19 lineto
closepath stroke
grestore
% The Good, the Bad and the Ugly (1966)->Clerks. (1994)
gsave
1 setlinewidth
0 0 0 edgecolor
newpath 11033.38 115.31 moveto
10378.4 361.13 3230.33 3043.85 2550.73 3298.91 curveto
stroke
0 0 0 edgecolor
newpath 2549.32 3295.7 moveto
2541.19 3302.49 lineto
2551.78 3302.25 lineto
closepath fill
1 setlinewidth
solid
0 0 0 edgecolor
newpath 2549.32 3295.7 moveto
2541.19 3302.49 lineto
2551.78 3302.25 lineto
closepath stroke
grestore
% Play Misty for Me (1971)
gsave
1 setlinewidth
0 0 0 nodecolor
12771.98 483.17 131.02 18.38 ellipse_path stroke
0 0 0 nodecolor
14 /Times-Roman set_font
12686.98 479.57 moveto 170 (Play Misty for Me \(1971\)) alignedtext
grestore
% The Good, the Bad and the Ugly (1966)->Play Misty for Me (1971)
gsave
1 setlinewidth
0 0 0 edgecolor
newpath 11157.03 114.57 moveto
11436.36 178.32 12408.22 400.14 12692.99 465.14 curveto
stroke
0 0 0 edgecolor
newpath 12692.3 468.57 moveto
12702.83 467.38 lineto
12693.86 461.75 lineto
closepath fill
1 setlinewidth
solid
0 0 0 edgecolor
newpath 12692.3 468.57 moveto
12702.83 467.38 lineto
12693.86 461.75 lineto
closepath stroke
grestore
% The Good, the Bad and the Ugly (1966)->Gone with the Wind (1939)
gsave
1 setlinewidth
0 0 0 edgecolor
newpath 11172.77 113.88 moveto
11335.97 143.5 11675.89 205.19 11841.12 235.17 curveto
stroke
0 0 0 edgecolor
newpath 11840.8 238.67 moveto
11851.27 237.01 lineto
11842.05 231.78 lineto
closepath fill
1 setlinewidth
solid
0 0 0 edgecolor
newpath 11840.8 238.67 moveto
11851.27 237.01 lineto
11842.05 231.78 lineto
closepath stroke
grestore
% The Conversation (1974)
gsave
1 setlinewidth
0 0 0 nodecolor
1479.66 4721.25 133.85 18.38 ellipse_path stroke
0 0 0 nodecolor
14 /Times-Roman set_font
1392.66 4717.65 moveto 174 (The Conversation \(1974\)) alignedtext
grestore
% The Good, the Bad and the Ugly (1966)->The Conversation (1974)
gsave
1 setlinewidth
0 0 0 edgecolor
newpath 11043.19 115.69 moveto
10414.27 418.56 2218.5 4365.44 1526.18 4698.84 curveto
stroke
0 0 0 edgecolor
newpath 1524.48 4695.77 moveto
1516.99 4703.27 lineto
1527.52 4702.08 lineto
closepath fill
1 setlinewidth
solid
0 0 0 edgecolor
newpath 1524.48 4695.77 moveto
1516.99 4703.27 lineto
1527.52 4702.08 lineto
closepath stroke
grestore
% From Russia with Love (1963)
gsave
1 setlinewidth
0 0 0 nodecolor
1957.78 15367.63 157.89 18.38 ellipse_path stroke
0 0 0 nodecolor
14 /Times-Roman set_font
1853.78 15364.03 moveto 208 (From Russia with Love \(1963\)) alignedtext
grestore
% Indiana Jones and the Temple of Doom (1984)->From Russia with Love (1963)
gsave
1 setlinewidth
0 0 0 edgecolor
newpath 1491.95 14661.92 moveto
1557.2 14760.77 1862.74 15223.64 1940 15340.68 curveto
stroke
0 0 0 edgecolor
newpath 1937.14 15342.7 moveto
1945.57 15349.12 lineto
1942.98 15338.84 lineto
closepath fill
1 setlinewidth
solid
0 0 0 edgecolor
newpath 1937.14 15342.7 moveto
1945.57 15349.12 lineto
1942.98 15338.84 lineto
closepath stroke
grestore
% Raiders of the Lost Ark (1981)
gsave
1 setlinewidth
0 0 0 nodecolor
19106.95 7109.02 159.81 18.38 ellipse_path stroke
0 0 0 nodecolor
14 /Times-Roman set_font
19001.95 7105.42 moveto 210 (Raiders of the Lost Ark \(1981\)) alignedtext
grestore
% Indiana Jones and the Temple of Doom (1984)->Raiders of the Lost Ark (1981)
gsave
1 setlinewidth
0 0 0 edgecolor
newpath 1522.34 14625.05 moveto
2445.59 14230.43 18046.47 7562.3 19055.74 7130.91 curveto
stroke
0 0 0 edgecolor
newpath 19057.12 7134.13 moveto
19064.94 7126.98 lineto
19054.36 7127.69 lineto
closepath fill
1 setlinewidth
solid
0 0 0 edgecolor
newpath 19057.12 7134.13 moveto
19064.94 7126.98 lineto
19054.36 7127.69 lineto
closepath stroke
grestore
% Once Upon a Time in the West (1968)
gsave
1 setlinewidth
0 0 0 nodecolor
17067.1 3318.35 196.78 18.38 ellipse_path stroke
0 0 0 nodecolor
14 /Times-Roman set_font
16935.6 3314.75 moveto 263 (Once Upon a Time in the West \(1968\)) alignedtext
grestore
% Indiana Jones and the Temple of Doom (1984)->Once Upon a Time in the West (1968)
gsave
1 setlinewidth
0 0 0 edgecolor
newpath 1505.2 14624.73 moveto
2186.04 14130.07 16253.44 3909.51 17033.41 3342.83 curveto
stroke
0 0 0 edgecolor
newpath 17035.68 3345.5 moveto
17041.72 3336.79 lineto
17031.57 3339.84 lineto
closepath fill
1 setlinewidth
solid
0 0 0 edgecolor
newpath 17035.68 3345.5 moveto
17041.72 3336.79 lineto
17031.57 3339.84 lineto
closepath stroke
grestore
% From Russia with Love (1963)->The Departed (2006)
gsave
1 setlinewidth
0 0 0 edgecolor
newpath 1954.43 15349.12 moveto
1879 14933.51 557.84 7653.31 464.29 7137.78 curveto
stroke
0 0 0 edgecolor
newpath 467.7 7137 moveto
462.47 7127.79 lineto
460.82 7138.25 lineto
closepath fill
1 setlinewidth
solid
0 0 0 edgecolor
newpath 467.7 7137 moveto
462.47 7127.79 lineto
460.82 7138.25 lineto
closepath stroke
grestore
% Just Like Heaven (2005)
gsave
1 setlinewidth
0 0 0 nodecolor
2498.92 16046.19 128.9 18.38 ellipse_path stroke
0 0 0 nodecolor
14 /Times-Roman set_font
2415.42 16042.59 moveto 167 (Just Like Heaven \(2005\)) alignedtext
grestore
% From Russia with Love (1963)->Just Like Heaven (2005)
gsave
1 setlinewidth
0 0 0 edgecolor
newpath 1972.54 15386.13 moveto
2047.82 15480.53 2389.01 15908.36 2477.76 16019.66 curveto
stroke
0 0 0 edgecolor
newpath 2475.21 16022.06 moveto
2484.18 16027.7 lineto
2480.68 16017.7 lineto
closepath fill
1 setlinewidth
solid
0 0 0 edgecolor
newpath 2475.21 16022.06 moveto
2484.18 16027.7 lineto
2480.68 16017.7 lineto
closepath stroke
grestore
% For a Few Dollars More (1965)
gsave
1 setlinewidth
0 0 0 nodecolor
14366.51 18199.83 160.01 18.38 ellipse_path stroke
0 0 0 nodecolor
14 /Times-Roman set_font
14261.01 18196.23 moveto 211 (For a Few Dollars More \(1965\)) alignedtext
grestore
% Amlie (2001)->For a Few Dollars More (1965)
gsave
1 setlinewidth
0 0 0 edgecolor
newpath 15787.36 17261.94 moveto
15611.36 17378.11 14607.2 18040.95 14402.81 18175.87 curveto
stroke
0 0 0 edgecolor
newpath 14400.65 18173.1 moveto
14394.23 18181.53 lineto
14404.51 18178.94 lineto
closepath fill
1 setlinewidth
solid
0 0 0 edgecolor
newpath 14400.65 18173.1 moveto
14394.23 18181.53 lineto
14404.51 18178.94 lineto
closepath stroke
grestore
% Amlie (2001)->Snatch. (2000)
gsave
1 setlinewidth
0 0 0 edgecolor
newpath 15800.24 17225.99 moveto
15374.24 16639.65 4986.81 2342.58 4474.08 1636.87 curveto
stroke
0 0 0 edgecolor
newpath 4476.74 1634.58 moveto
4468.03 1628.54 lineto
4471.08 1638.69 lineto
closepath fill
1 setlinewidth
solid
0 0 0 edgecolor
newpath 4476.74 1634.58 moveto
4468.03 1628.54 lineto
4471.08 1638.69 lineto
closepath stroke
grestore
% Amlie (2001)->Ringu (1998)
gsave
1 setlinewidth
0 0 0 edgecolor
newpath 15834.36 17226.51 moveto
15929.83 17143.09 16328.65 16794.66 16438.94 16698.3 curveto
stroke
0 0 0 edgecolor
newpath 16441.44 16700.76 moveto
16446.67 16691.54 lineto
16436.84 16695.49 lineto
closepath fill
1 setlinewidth
solid
0 0 0 edgecolor
newpath 16441.44 16700.76 moveto
16446.67 16691.54 lineto
16436.84 16695.49 lineto
closepath stroke
grestore
% For a Few Dollars More (1965)->Good Will Hunting (1997)
gsave
1 setlinewidth
0 0 0 edgecolor
newpath 14341.21 18181.45 moveto
13699 17714.87 1038.37 8516.38 299.6 7979.63 curveto
stroke
0 0 0 edgecolor
newpath 301.6 7976.76 moveto
291.46 7973.71 lineto
297.49 7982.42 lineto
closepath fill
1 setlinewidth
solid
0 0 0 edgecolor
newpath 301.6 7976.76 moveto
291.46 7973.71 lineto
297.49 7982.42 lineto
closepath stroke
grestore
% Papillon (1973)
gsave
1 setlinewidth
0 0 0 nodecolor
13584.54 18576.41 85.06 18.38 ellipse_path stroke
0 0 0 nodecolor
14 /Times-Roman set_font
13532.04 18572.81 moveto 105 (Papillon \(1973\)) alignedtext
grestore
% For a Few Dollars More (1965)->Papillon (1973)
gsave
1 setlinewidth
0 0 0 edgecolor
newpath 14329.05 18217.87 moveto
14199.21 18280.4 13768.7 18487.72 13628.85 18555.07 curveto
stroke
0 0 0 edgecolor
newpath 13627.16 18552 moveto
13619.67 18559.49 lineto
13630.2 18558.3 lineto
closepath fill
1 setlinewidth
solid
0 0 0 edgecolor
newpath 13627.16 18552 moveto
13619.67 18559.49 lineto
13630.2 18558.3 lineto
closepath stroke
grestore
% Planes, Trains & Automobiles (1987)->Raiders of the Lost Ark (1981)
gsave
1 setlinewidth
0 0 0 edgecolor
newpath 522.49 12238.01 moveto
1663.06 11923.23 17820.71 7464 19034.85 7128.92 curveto
stroke
0 0 0 edgecolor
newpath 19036.05 7132.22 moveto
19044.75 7126.19 lineto
19034.18 7125.47 lineto
closepath fill
1 setlinewidth
solid
0 0 0 edgecolor
newpath 19036.05 7132.22 moveto
19044.75 7126.19 lineto
19034.18 7125.47 lineto
closepath stroke
grestore
% The Silence of the Lambs (1991)
gsave
1 setlinewidth
0 0 0 nodecolor
9349.05 19345.04 169.91 18.38 ellipse_path stroke
0 0 0 nodecolor
14 /Times-Roman set_font
9236.55 19341.44 moveto 225 (The Silence of the Lambs \(1991\)) alignedtext
grestore
% Raiders of the Lost Ark (1981)->The Silence of the Lambs (1991)
gsave
1 setlinewidth
0 0 0 edgecolor
newpath 19092.08 7127.66 moveto
18680.6 7643.64 9858.99 18705.6 9370.15 19318.57 curveto
stroke
0 0 0 edgecolor
newpath 9367.36 19316.46 moveto
9363.87 19326.46 lineto
9372.84 19320.82 lineto
closepath fill
1 setlinewidth
solid
0 0 0 edgecolor
newpath 9367.36 19316.46 moveto
9363.87 19326.46 lineto
9372.84 19320.82 lineto
closepath stroke
grestore
% Raiders of the Lost Ark (1981)->Clear and Present Danger (1994)
gsave
1 setlinewidth
0 0 0 edgecolor
newpath 19100.84 7090.23 moveto
19065.8 6982.41 18890.4 6442.58 18847.99 6312.04 curveto
stroke
0 0 0 edgecolor
newpath 18851.26 6310.78 moveto
18844.84 6302.35 lineto
18844.6 6312.95 lineto
closepath fill
1 setlinewidth
solid
0 0 0 edgecolor
newpath 18851.26 6310.78 moveto
18844.84 6302.35 lineto
18844.6 6312.95 lineto
closepath stroke
grestore
% Airplane! (1980)
gsave
1 setlinewidth
0 0 0 nodecolor
5981.47 18576.41 92.13 18.38 ellipse_path stroke
0 0 0 nodecolor
14 /Times-Roman set_font
5923.97 18572.81 moveto 115 (Airplane! \(1980\)) alignedtext
grestore
% Dr. Strangelove or How I Learned to Stop Worrying and Love the Bomb (1964)
gsave
1 setlinewidth
0 0 0 nodecolor
5199.51 18199.83 398.1 18.38 ellipse_path stroke
0 0 0 nodecolor
14 /Times-Roman set_font
4926.01 18196.23 moveto 547 (Dr. Strangelove or How I Learned to Stop Worrying and Love the Bomb \(1964\)) alignedtext
grestore
% Airplane! (1980)->Dr. Strangelove or How I Learned to Stop Worrying and Love the Bomb (1964)
gsave
1 setlinewidth
0 0 0 edgecolor
newpath 5945.84 18559.25 moveto
5819.25 18498.28 5391.08 18292.09 5247.15 18222.78 curveto
stroke
0 0 0 edgecolor
newpath 5248.62 18219.6 moveto
5238.09 18218.41 lineto
5245.58 18225.91 lineto
closepath fill
1 setlinewidth
solid
0 0 0 edgecolor
newpath 5248.62 18219.6 moveto
5238.09 18218.41 lineto
5245.58 18225.91 lineto
closepath stroke
grestore
% Aliens (1986)
gsave
1 setlinewidth
0 0 0 nodecolor
6794.04 18881.37 77.07 18.38 ellipse_path stroke
0 0 0 nodecolor
14 /Times-Roman set_font
6747.54 18877.77 moveto 93 (Aliens \(1986\)) alignedtext
grestore
% Airplane! (1980)->Aliens (1986)
gsave
1 setlinewidth
0 0 0 edgecolor
newpath 6025.16 18592.8 moveto
6163.86 18644.86 6593.86 18806.24 6742.71 18862.1 curveto
stroke
0 0 0 edgecolor
newpath 6741.51 18865.39 moveto
6752.1 18865.63 lineto
6743.96 18858.84 lineto
closepath fill
1 setlinewidth
solid
0 0 0 edgecolor
newpath 6741.51 18865.39 moveto
6752.1 18865.63 lineto
6743.96 18858.84 lineto
closepath stroke
grestore
% Dr. Strangelove or How I Learned to Stop Worrying and Love the Bomb (1964)->Blazing Saddles (1974)
gsave
1 setlinewidth
0 0 0 edgecolor
newpath 5168.44 18181.27 moveto
5049.84 18110.41 4625.6 17856.94 4493.8 17778.19 curveto
stroke
0 0 0 edgecolor
newpath 4495.21 17774.96 moveto
4484.83 17772.83 lineto
4491.62 17780.97 lineto
closepath fill
1 setlinewidth
solid
0 0 0 edgecolor
newpath 4495.21 17774.96 moveto
4484.83 17772.83 lineto
4491.62 17780.97 lineto
closepath stroke
grestore
% Dirty Harry (1971)
gsave
1 setlinewidth
0 0 0 nodecolor
16467.32 2691.03 103.24 18.38 ellipse_path stroke
0 0 0 nodecolor
14 /Times-Roman set_font
16402.32 2687.43 moveto 130 (Dirty Harry \(1971\)) alignedtext
grestore
% Legally Blonde (2001)
gsave
1 setlinewidth
0 0 0 nodecolor
15813.72 2120 118.79 18.38 ellipse_path stroke
0 0 0 nodecolor
14 /Times-Roman set_font
15737.72 2116.4 moveto 152 (Legally Blonde \(2001\)) alignedtext
grestore
% Dirty Harry (1971)->Legally Blonde (2001)
gsave
1 setlinewidth
0 0 0 edgecolor
newpath 16446.31 2672.68 moveto
16350.28 2588.78 15952.99 2241.67 15842.4 2145.06 curveto
stroke
0 0 0 edgecolor
newpath 15844.48 2142.22 moveto
15834.65 2138.28 lineto
15839.87 2147.5 lineto
closepath fill
1 setlinewidth
solid
0 0 0 edgecolor
newpath 15844.48 2142.22 moveto
15834.65 2138.28 lineto
15839.87 2147.5 lineto
closepath stroke
grestore
% Legally Blonde (2001)->Terminator 2 Judgment Day (1991)
gsave
1 setlinewidth
0 0 0 edgecolor
newpath 15746.65 2104.69 moveto
15015.13 1937.72 8530.4 457.63 7714.82 271.48 curveto
stroke
0 0 0 edgecolor
newpath 7715.45 268.03 moveto
7704.92 269.22 lineto
7713.89 274.85 lineto
closepath fill
1 setlinewidth
solid
0 0 0 edgecolor
newpath 7715.45 268.03 moveto
7704.92 269.22 lineto
7713.89 274.85 lineto
closepath stroke
grestore
% Legally Blonde (2001)->Dr. No (1962)
gsave
1 setlinewidth
0 0 0 edgecolor
newpath 15788.73 2101.84 moveto
15681.97 2024.27 15264.12 1720.69 15144.01 1633.43 curveto
stroke
0 0 0 edgecolor
newpath 15146.04 1630.57 moveto
15135.89 1627.53 lineto
15141.92 1636.24 lineto
closepath fill
1 setlinewidth
solid
0 0 0 edgecolor
newpath 15146.04 1630.57 moveto
15135.89 1627.53 lineto
15141.92 1636.24 lineto
closepath stroke
grestore
% Saving Private Ryan (1998)
gsave
1 setlinewidth
0 0 0 nodecolor
15806.81 1837.31 145.87 18.38 ellipse_path stroke
0 0 0 nodecolor
14 /Times-Roman set_font
15711.31 1833.71 moveto 191 (Saving Private Ryan \(1998\)) alignedtext
grestore
% Legally Blonde (2001)->Saving Private Ryan (1998)
gsave
1 setlinewidth
0 0 0 edgecolor
newpath 15813.26 2101.45 moveto
15812.09 2053.33 15808.93 1924.21 15807.51 1866.21 curveto
stroke
0 0 0 edgecolor
newpath 15811.01 1865.84 moveto
15807.26 1855.93 lineto
15804.01 1866.01 lineto
closepath fill
1 setlinewidth
solid
0 0 0 edgecolor
newpath 15811.01 1865.84 moveto
15807.26 1855.93 lineto
15804.01 1866.01 lineto
closepath stroke
grestore
% Garden State (2004)
gsave
1 setlinewidth
0 0 0 nodecolor
19455.51 9682.27 113.84 18.38 ellipse_path stroke
0 0 0 nodecolor
14 /Times-Roman set_font
19383.01 9678.67 moveto 145 (Garden State \(2004\)) alignedtext
grestore
% Legally Blonde (2001)->Garden State (2004)
gsave
1 setlinewidth
0 0 0 edgecolor
newpath 15822.61 2138.46 moveto
16013.32 2534.47 19209.62 9171.66 19442.17 9654.56 curveto
stroke
0 0 0 edgecolor
newpath 19439.06 9656.16 moveto
19446.55 9663.65 lineto
19445.36 9653.12 lineto
closepath fill
1 setlinewidth
solid
0 0 0 edgecolor
newpath 19439.06 9656.16 moveto
19446.55 9663.65 lineto
19445.36 9653.12 lineto
closepath stroke
grestore
% The Pianist (2002)
gsave
1 setlinewidth
0 0 0 nodecolor
19300.07 11409.36 102.03 18.38 ellipse_path stroke
0 0 0 nodecolor
14 /Times-Roman set_font
19235.57 11405.76 moveto 129 (The Pianist \(2002\)) alignedtext
grestore
% The Pianist (2002)->Papillon (1973)
gsave
1 setlinewidth
0 0 0 edgecolor
newpath 19285.41 11427.75 moveto
18979.04 11811.93 13972.53 18089.89 13605.75 18549.82 curveto
stroke
0 0 0 edgecolor
newpath 13602.79 18547.92 moveto
13599.29 18557.92 lineto
13608.26 18552.28 lineto
closepath fill
1 setlinewidth
solid
0 0 0 edgecolor
newpath 13602.79 18547.92 moveto
13599.29 18557.92 lineto
13608.26 18552.28 lineto
closepath stroke
grestore
% The Pianist (2002)->Spirited Away (2001)
gsave
1 setlinewidth
0 0 0 edgecolor
newpath 19302.62 11390.6 moveto
19317.62 11279.86 19394.54 10711.95 19412.72 10577.75 curveto
stroke
0 0 0 edgecolor
newpath 19416.19 10578.2 moveto
19414.07 10567.82 lineto
19409.26 10577.26 lineto
closepath fill
1 setlinewidth
solid
0 0 0 edgecolor
newpath 19416.19 10578.2 moveto
19414.07 10567.82 lineto
19409.26 10577.26 lineto
closepath stroke
grestore
% Papillon (1973)->Taken (2008)
gsave
1 setlinewidth
0 0 0 edgecolor
newpath 13552.56 18559.2 moveto
12858.29 18185.59 1084.65 11849.93 306.33 11431.1 curveto
stroke
0 0 0 edgecolor
newpath 307.89 11427.96 moveto
297.43 11426.3 lineto
304.58 11434.13 lineto
closepath fill
1 setlinewidth
solid
0 0 0 edgecolor
newpath 307.89 11427.96 moveto
297.43 11426.3 lineto
304.58 11434.13 lineto
closepath stroke
grestore
% Papillon (1973)->Blade Runner (1982)
gsave
1 setlinewidth
0 0 0 edgecolor
newpath 13541.72 18592.48 moveto
13405.03 18643.78 12979.28 18803.57 12826.91 18860.75 curveto
stroke
0 0 0 edgecolor
newpath 12825.4 18857.58 moveto
12817.27 18864.37 lineto
12827.86 18864.13 lineto
closepath fill
1 setlinewidth
solid
0 0 0 edgecolor
newpath 12825.4 18857.58 moveto
12817.27 18864.37 lineto
12827.86 18864.13 lineto
closepath stroke
grestore
% The Silence of the Lambs (1991)->Blazing Saddles (1974)
gsave
1 setlinewidth
0 0 0 edgecolor
newpath 9294.92 19327.45 moveto
8798.55 19166.17 5043.99 17946.24 4516.06 17774.7 curveto
stroke
0 0 0 edgecolor
newpath 4516.93 17771.3 moveto
4506.34 17771.54 lineto
4514.77 17777.96 lineto
closepath fill
1 setlinewidth
solid
0 0 0 edgecolor
newpath 4516.93 17771.3 moveto
4506.34 17771.54 lineto
4514.77 17777.96 lineto
closepath stroke
grestore
% The Silence of the Lambs (1991)->Uncle Buck (1989)
gsave
1 setlinewidth
0 0 0 edgecolor
newpath 9321.09 19326.58 moveto
8817.47 18994.14 1672.92 14278.06 1104.26 13902.69 curveto
stroke
0 0 0 edgecolor
newpath 1105.9 13899.58 moveto
1095.62 13896.99 lineto
1102.04 13905.42 lineto
closepath fill
1 setlinewidth
solid
0 0 0 edgecolor
newpath 1105.9 13899.58 moveto
1095.62 13896.99 lineto
1102.04 13905.42 lineto
closepath stroke
grestore
% Indiana Jones and the Last Crusade (1989)
gsave
1 setlinewidth
0 0 0 nodecolor
11935.34 19112.27 220.12 18.38 ellipse_path stroke
0 0 0 nodecolor
14 /Times-Roman set_font
11787.34 19108.67 moveto 296 (Indiana Jones and the Last Crusade \(1989\)) alignedtext
grestore
% The Silence of the Lambs (1991)->Indiana Jones and the Last Crusade (1989)
gsave
1 setlinewidth
0 0 0 edgecolor
newpath 9480.42 19333.21 moveto
9914.4 19294.15 11301.42 19169.32 11775.05 19126.69 curveto
stroke
0 0 0 edgecolor
newpath 11775.4 19130.17 moveto
11785.04 19125.79 lineto
11774.77 19123.2 lineto
closepath fill
1 setlinewidth
solid
0 0 0 edgecolor
newpath 11775.4 19130.17 moveto
11785.04 19125.79 lineto
11774.77 19123.2 lineto
closepath stroke
grestore
% Ferris Bueller's Day Off (1986)
gsave
1 setlinewidth
0 0 0 nodecolor
10216.96 19345.04 159.81 18.38 ellipse_path stroke
0 0 0 nodecolor
14 /Times-Roman set_font
10111.96 19341.44 moveto 210 (Ferris Bueller's Day Off \(1986\)) alignedtext
grestore
% The Silence of the Lambs (1991)->Ferris Bueller's Day Off (1986)
gsave
1 setlinewidth
0 0 0 edgecolor
newpath 9519.23 19345.04 moveto
9671.58 19345.04 9893.81 19345.04 10046.31 19345.04 curveto
stroke
0 0 0 edgecolor
newpath 10046.71 19348.54 moveto
10056.71 19345.04 lineto
10046.71 19341.54 lineto
closepath fill
1 setlinewidth
solid
0 0 0 edgecolor
newpath 10046.71 19348.54 moveto
10056.71 19345.04 lineto
10046.71 19341.54 lineto
closepath stroke
grestore
% A Fistful of Dollars (1964)
gsave
1 setlinewidth
0 0 0 nodecolor
14366.51 1164.7 135.97 18.38 ellipse_path stroke
0 0 0 nodecolor
14 /Times-Roman set_font
14278.01 1161.1 moveto 177 (A Fistful of Dollars \(1964\)) alignedtext
grestore
% The Silence of the Lambs (1991)->A Fistful of Dollars (1964)
gsave
1 setlinewidth
0 0 0 edgecolor
newpath 9354.17 19326.49 moveto
9529.31 18691.89 14142.17 1977.54 14358.64 1193.2 curveto
stroke
0 0 0 edgecolor
newpath 14362.03 1194.09 moveto
14361.31 1183.51 lineto
14355.28 1192.22 lineto
closepath fill
1 setlinewidth
solid
0 0 0 edgecolor
newpath 14362.03 1194.09 moveto
14361.31 1183.51 lineto
14355.28 1192.22 lineto
closepath stroke
grestore
% Indiana Jones and the Last Crusade (1989)->Taken (2008)
gsave
1 setlinewidth
0 0 0 edgecolor
newpath 11907.32 19093.77 moveto
11298.86 18692.13 977.89 11879.31 300.8 11432.37 curveto
stroke
0 0 0 edgecolor
newpath 302.67 11429.41 moveto
292.4 11426.82 lineto
298.82 11435.25 lineto
closepath fill
1 setlinewidth
solid
0 0 0 edgecolor
newpath 302.67 11429.41 moveto
292.4 11426.82 lineto
298.82 11435.25 lineto
closepath stroke
grestore
% Indiana Jones and the Last Crusade (1989)->The Shawshank Redemption (1994)
gsave
1 setlinewidth
0 0 0 edgecolor
newpath 11715.21 19112.27 moveto
10968.52 19112.27 8539.14 19112.27 7827.96 19112.27 curveto
stroke
0 0 0 edgecolor
newpath 7827.87 19108.77 moveto
7817.87 19112.27 lineto
7827.87 19115.77 lineto
closepath fill
1 setlinewidth
solid
0 0 0 edgecolor
newpath 7827.87 19108.77 moveto
7817.87 19112.27 lineto
7827.87 19115.77 lineto
closepath stroke
grestore
% Indiana Jones and the Last Crusade (1989)->Catch Me If You Can (2002)
gsave
1 setlinewidth
0 0 0 edgecolor
newpath 11966.13 19093.87 moveto
12367.95 18853.8 16575.57 16339.86 17027.77 16069.68 curveto
stroke
0 0 0 edgecolor
newpath 17029.79 16072.55 moveto
17036.57 16064.42 lineto
17026.2 16066.55 lineto
closepath fill
1 setlinewidth
solid
0 0 0 edgecolor
newpath 17029.79 16072.55 moveto
17036.57 16064.42 lineto
17026.2 16066.55 lineto
closepath stroke
grestore
% Indiana Jones and the Last Crusade (1989)->Ringu (1998)
gsave
1 setlinewidth
0 0 0 edgecolor
newpath 11969.54 19093.86 moveto
12361.69 18882.84 16002.65 16923.55 16427.02 16695.19 curveto
stroke
0 0 0 edgecolor
newpath 16428.74 16698.24 moveto
16435.88 16690.42 lineto
16425.42 16692.08 lineto
closepath fill
1 setlinewidth
solid
0 0 0 edgecolor
newpath 16428.74 16698.24 moveto
16435.88 16690.42 lineto
16425.42 16692.08 lineto
closepath stroke
grestore
% Indiana Jones and the Last Crusade (1989)->Blade Runner (1982)
gsave
1 setlinewidth
0 0 0 edgecolor
newpath 11999.6 19094.53 moveto
12154.14 19051.88 12545.48 18943.88 12703.87 18900.16 curveto
stroke
0 0 0 edgecolor
newpath 12705.25 18903.41 moveto
12713.96 18897.38 lineto
12703.39 18896.67 lineto
closepath fill
1 setlinewidth
solid
0 0 0 edgecolor
newpath 12705.25 18903.41 moveto
12713.96 18897.38 lineto
12703.39 18896.67 lineto
closepath stroke
grestore
% Trainspotting (1996)
gsave
1 setlinewidth
0 0 0 nodecolor
15111.56 17754.68 111.22 18.38 ellipse_path stroke
0 0 0 nodecolor
14 /Times-Roman set_font
15040.56 17751.08 moveto 142 (Trainspotting \(1996\)) alignedtext
grestore
% Trainspotting (1996)->Clerks. (1994)
gsave
1 setlinewidth
0 0 0 edgecolor
newpath 15095.49 17736.29 moveto
14606.22 17176.27 3103.54 4010.4 2521.76 3344.5 curveto
stroke
0 0 0 edgecolor
newpath 2524.28 3342.06 moveto
2515.06 3336.83 lineto
2519 3346.66 lineto
closepath fill
1 setlinewidth
solid
0 0 0 edgecolor
newpath 2524.28 3342.06 moveto
2515.06 3336.83 lineto
2519 3346.66 lineto
closepath stroke
grestore
% Trainspotting (1996)->For a Few Dollars More (1965)
gsave
1 setlinewidth
0 0 0 edgecolor
newpath 15081.43 17772.69 moveto
14964.07 17842.81 14537.51 18097.67 14405.63 18176.46 curveto
stroke
0 0 0 edgecolor
newpath 14403.8 18173.48 moveto
14397.01 18181.61 lineto
14407.39 18179.48 lineto
closepath fill
1 setlinewidth
solid
0 0 0 edgecolor
newpath 14403.8 18173.48 moveto
14397.01 18181.61 lineto
14407.39 18179.48 lineto
closepath stroke
grestore
% Erin Brockovich (2000)->Pan's Labyrinth (2006)
gsave
1 setlinewidth
0 0 0 edgecolor
newpath 9270.49 33.76 moveto
8894.46 102 7280.35 394.91 6882.79 467.06 curveto
stroke
0 0 0 edgecolor
newpath 6881.99 463.65 moveto
6872.78 468.88 lineto
6883.24 470.54 lineto
closepath fill
1 setlinewidth
solid
0 0 0 edgecolor
newpath 6881.99 463.65 moveto
6872.78 468.88 lineto
6883.24 470.54 lineto
closepath stroke
grestore
% The Godfather (1972)
gsave
1 setlinewidth
0 0 0 nodecolor
10216.96 19.5 118.79 18.38 ellipse_path stroke
0 0 0 nodecolor
14 /Times-Roman set_font
10140.96 15.9 moveto 152 (The Godfather \(1972\)) alignedtext
grestore
% The Godfather (1972)->Taken (2008)
gsave
1 setlinewidth
0 0 0 edgecolor
newpath 10200.82 37.98 moveto
9768.74 532.53 803.07 10794.57 288.94 11383.04 curveto
stroke
0 0 0 edgecolor
newpath 285.93 11381.16 moveto
281.98 11391 lineto
291.2 11385.77 lineto
closepath fill
1 setlinewidth
solid
0 0 0 edgecolor
newpath 285.93 11381.16 moveto
281.98 11391 lineto
291.2 11385.77 lineto
closepath stroke
grestore
% The Godfather (1972)->The Good, the Bad and the Ugly (1966)
gsave
1 setlinewidth
0 0 0 edgecolor
newpath 10320.37 28.81 moveto
10470.72 42.34 10750.77 67.54 10926.01 83.31 curveto
stroke
0 0 0 edgecolor
newpath 10925.82 86.81 moveto
10936.09 84.22 lineto
10926.44 79.84 lineto
closepath fill
1 setlinewidth
solid
0 0 0 edgecolor
newpath 10925.82 86.81 moveto
10936.09 84.22 lineto
10926.44 79.84 lineto
closepath stroke
grestore
% The Godfather (1972)->Raiders of the Lost Ark (1981)
gsave
1 setlinewidth
0 0 0 edgecolor
newpath 10239.78 37.69 moveto
10716.77 418.08 18518.69 6639.9 19075.62 7084.04 curveto
stroke
0 0 0 edgecolor
newpath 19073.65 7086.95 moveto
19083.65 7090.45 lineto
19078.01 7081.48 lineto
closepath fill
1 setlinewidth
solid
0 0 0 edgecolor
newpath 19073.65 7086.95 moveto
19083.65 7090.45 lineto
19078.01 7081.48 lineto
closepath stroke
grestore
% The Godfather (1972)->Erin Brockovich (2000)
gsave
1 setlinewidth
0 0 0 edgecolor
newpath 10097.65 19.5 moveto
9936.57 19.5 9650.43 19.5 9482.43 19.5 curveto
stroke
0 0 0 edgecolor
newpath 9482.28 16 moveto
9472.28 19.5 lineto
9482.28 23 lineto
closepath fill
1 setlinewidth
solid
0 0 0 edgecolor
newpath 9482.28 16 moveto
9472.28 19.5 lineto
9482.28 23 lineto
closepath stroke
grestore
% The Godfather (1972)->Snatch. (2000)
gsave
1 setlinewidth
0 0 0 edgecolor
newpath 10158.52 35.63 moveto
9593.03 191.69 5101.45 1431.29 4517.05 1592.58 curveto
stroke
0 0 0 edgecolor
newpath 4515.84 1589.28 moveto
4507.13 1595.31 lineto
4517.7 1596.03 lineto
closepath fill
1 setlinewidth
solid
0 0 0 edgecolor
newpath 4515.84 1589.28 moveto
4507.13 1595.31 lineto
4517.7 1596.03 lineto
closepath stroke
grestore
% Ferris Bueller's Day Off (1986)->Planes, Trains & Automobiles (1987)
gsave
1 setlinewidth
0 0 0 edgecolor
newpath 10191.51 19326.54 moveto
9663.76 18943.11 1100.24 12721.35 492.99 12280.15 curveto
stroke
0 0 0 edgecolor
newpath 494.77 12277.13 moveto
484.63 12274.08 lineto
490.66 12282.79 lineto
closepath fill
1 setlinewidth
solid
0 0 0 edgecolor
newpath 494.77 12277.13 moveto
484.63 12274.08 lineto
490.66 12282.79 lineto
closepath stroke
grestore
% Goldfinger (1964)
gsave
1 setlinewidth
0 0 0 nodecolor
11081.38 19267.24 97.79 18.38 ellipse_path stroke
0 0 0 nodecolor
14 /Times-Roman set_font
11019.88 19263.64 moveto 123 (Goldfinger \(1964\)) alignedtext
grestore
% Ferris Bueller's Day Off (1986)->Goldfinger (1964)
gsave
1 setlinewidth
0 0 0 edgecolor
newpath 10343.58 19333.64 moveto
10517.04 19318.03 10824.93 19290.32 10982.49 19276.14 curveto
stroke
0 0 0 edgecolor
newpath 10983 19279.61 moveto
10992.65 19275.22 lineto
10982.37 19272.63 lineto
closepath fill
1 setlinewidth
solid
0 0 0 edgecolor
newpath 10983 19279.61 moveto
10992.65 19275.22 lineto
10982.37 19272.63 lineto
closepath stroke
grestore
% The Shawshank Redemption (1994)->Blazing Saddles (1974)
gsave
1 setlinewidth
0 0 0 edgecolor
newpath 7588.47 19094.23 moveto
7242.75 18946.46 4880.27 17936.69 4504.72 17776.17 curveto
stroke
0 0 0 edgecolor
newpath 4506.02 17772.92 moveto
4495.45 17772.21 lineto
4503.27 17779.36 lineto
closepath fill
1 setlinewidth
solid
0 0 0 edgecolor
newpath 4506.02 17772.92 moveto
4495.45 17772.21 lineto
4503.27 17779.36 lineto
closepath stroke
grestore
% The Shawshank Redemption (1994)->Amlie (2001)
gsave
1 setlinewidth
0 0 0 edgecolor
newpath 7705.18 19095.26 moveto
8478.39 18918.78 15023.88 17424.81 15748.61 17259.4 curveto
stroke
0 0 0 edgecolor
newpath 15749.64 17262.75 moveto
15758.61 17257.12 lineto
15748.08 17255.93 lineto
closepath fill
1 setlinewidth
solid
0 0 0 edgecolor
newpath 15749.64 17262.75 moveto
15758.61 17257.12 lineto
15748.08 17255.93 lineto
closepath stroke
grestore
% Catch Me If You Can (2002)->Ringu (1998)
gsave
1 setlinewidth
0 0 0 edgecolor
newpath 17049.47 16064.62 moveto
16963.77 16154.26 16590.69 16544.47 16491.57 16648.14 curveto
stroke
0 0 0 edgecolor
newpath 16489.03 16645.73 moveto
16484.65 16655.37 lineto
16494.09 16650.56 lineto
closepath fill
1 setlinewidth
solid
0 0 0 edgecolor
newpath 16489.03 16645.73 moveto
16484.65 16655.37 lineto
16494.09 16650.56 lineto
closepath stroke
grestore
% Apollo 13 (1995)
gsave
1 setlinewidth
0 0 0 nodecolor
19416.58 8815.23 92.84 18.38 ellipse_path stroke
0 0 0 nodecolor
14 /Times-Roman set_font
19358.58 8811.63 moveto 116 (Apollo 13 \(1995\)) alignedtext
grestore
% Catch Me If You Can (2002)->Apollo 13 (1995)
gsave
1 setlinewidth
0 0 0 edgecolor
newpath 17073.13 16027.63 moveto
17198.94 15640.41 19253.05 9318.53 19407.41 8843.44 curveto
stroke
0 0 0 edgecolor
newpath 19410.75 8844.47 moveto
19410.52 8833.88 lineto
19404.1 8842.31 lineto
closepath fill
1 setlinewidth
solid
0 0 0 edgecolor
newpath 19410.75 8844.47 moveto
19410.52 8833.88 lineto
19404.1 8842.31 lineto
closepath stroke
grestore
% The Great Escape (1963)
gsave
1 setlinewidth
0 0 0 nodecolor
13584.54 788.13 133.85 18.38 ellipse_path stroke
0 0 0 nodecolor
14 /Times-Roman set_font
13497.54 784.53 moveto 174 (The Great Escape \(1963\)) alignedtext
grestore
% The Great Escape (1963)->Play Misty for Me (1971)
gsave
1 setlinewidth
0 0 0 edgecolor
newpath 13538.23 770.75 moveto
13398.22 718.2 12979.66 561.11 12827.8 504.12 curveto
stroke
0 0 0 edgecolor
newpath 12828.78 500.75 moveto
12818.19 500.51 lineto
12826.32 507.3 lineto
closepath fill
1 setlinewidth
solid
0 0 0 edgecolor
newpath 12828.78 500.75 moveto
12818.19 500.51 lineto
12826.32 507.3 lineto
closepath stroke
grestore
% Once Upon a Time in the West (1968)->Dirty Harry (1971)
gsave
1 setlinewidth
0 0 0 edgecolor
newpath 17049.47 3299.92 moveto
16963.86 3210.38 16591.51 2820.93 16491.9 2716.74 curveto
stroke
0 0 0 edgecolor
newpath 16494.38 2714.27 moveto
16484.94 2709.46 lineto
16489.32 2719.11 lineto
closepath fill
1 setlinewidth
solid
0 0 0 edgecolor
newpath 16494.38 2714.27 moveto
16484.94 2709.46 lineto
16489.32 2719.11 lineto
closepath stroke
grestore
% Once Upon a Time in the West (1968)->Garden State (2004)
gsave
1 setlinewidth
0 0 0 edgecolor
newpath 17074.05 3336.89 moveto
17209.52 3697.84 19279.52 9213.33 19445.02 9654.31 curveto
stroke
0 0 0 edgecolor
newpath 19441.79 9655.65 moveto
19448.58 9663.78 lineto
19448.34 9653.19 lineto
closepath fill
1 setlinewidth
solid
0 0 0 edgecolor
newpath 19441.79 9655.65 moveto
19448.58 9663.78 lineto
19448.34 9653.19 lineto
closepath stroke
grestore
% The Wicker Man (1973)
gsave
1 setlinewidth
0 0 0 nodecolor
3098.7 2691.03 126.07 18.38 ellipse_path stroke
0 0 0 nodecolor
14 /Times-Roman set_font
3017.2 2687.43 moveto 163 (The Wicker Man \(1973\)) alignedtext
grestore
% The Wicker Man (1973)->Clerks. (1994)
gsave
1 setlinewidth
0 0 0 edgecolor
newpath 3081.07 2709.46 moveto
2995.37 2799.1 2622.29 3189.31 2523.17 3292.98 curveto
stroke
0 0 0 edgecolor
newpath 2520.64 3290.57 moveto
2516.26 3300.22 lineto
2525.7 3295.41 lineto
closepath fill
1 setlinewidth
solid
0 0 0 edgecolor
newpath 2520.64 3290.57 moveto
2516.26 3300.22 lineto
2525.7 3295.41 lineto
closepath stroke
grestore
% The Wicker Man (1973)->Gone with the Wind (1939)
gsave
1 setlinewidth
0 0 0 edgecolor
newpath 3158.06 2674.65 moveto
3885.66 2473.84 11071.54 490.66 11864.4 271.85 curveto
stroke
0 0 0 edgecolor
newpath 11865.55 275.16 moveto
11874.26 269.13 lineto
11863.69 268.42 lineto
closepath fill
1 setlinewidth
solid
0 0 0 edgecolor
newpath 11865.55 275.16 moveto
11874.26 269.13 lineto
11863.69 268.42 lineto
closepath stroke
grestore
% The Wicker Man (1973)->Romeo + Juliet (1996)
gsave
1 setlinewidth
0 0 0 edgecolor
newpath 3119.7 2672.68 moveto
3215.74 2588.78 3613.03 2241.67 3723.62 2145.06 curveto
stroke
0 0 0 edgecolor
newpath 3726.14 2147.5 moveto
3731.37 2138.28 lineto
3721.54 2142.22 lineto
closepath fill
1 setlinewidth
solid
0 0 0 edgecolor
newpath 3726.14 2147.5 moveto
3731.37 2138.28 lineto
3721.54 2142.22 lineto
closepath stroke
grestore
% Paint Your Wagon (1969)
gsave
1 setlinewidth
0 0 0 nodecolor
5981.47 788.13 135.06 18.38 ellipse_path stroke
0 0 0 nodecolor
14 /Times-Roman set_font
5893.97 784.53 moveto 175 (Paint Your Wagon \(1969\)) alignedtext
grestore
% Romeo + Juliet (1996)->Paint Your Wagon (1969)
gsave
1 setlinewidth
0 0 0 edgecolor
newpath 3782.54 2101.93 moveto
4026.16 1956.37 5666.31 976.43 5942.14 811.63 curveto
stroke
0 0 0 edgecolor
newpath 5944.21 814.47 moveto
5951 806.33 lineto
5940.62 808.46 lineto
closepath fill
1 setlinewidth
solid
0 0 0 edgecolor
newpath 5944.21 814.47 moveto
5951 806.33 lineto
5940.62 808.46 lineto
closepath stroke
grestore
% Romeo + Juliet (1996)->Aliens (1986)
gsave
1 setlinewidth
0 0 0 edgecolor
newpath 3755.73 2138.93 moveto
3867.15 2752.88 6652.09 18099.19 6788.83 18852.68 curveto
stroke
0 0 0 edgecolor
newpath 6785.42 18853.5 moveto
6790.65 18862.71 lineto
6792.31 18852.25 lineto
closepath fill
1 setlinewidth
solid
0 0 0 edgecolor
newpath 6785.42 18853.5 moveto
6790.65 18862.71 lineto
6792.31 18852.25 lineto
closepath stroke
grestore
% Romeo + Juliet (1996)->Spirited Away (2001)
gsave
1 setlinewidth
0 0 0 edgecolor
newpath 3785.58 2137.91 moveto
4557.62 2553.36 18509.56 10061.22 19374.6 10526.71 curveto
stroke
0 0 0 edgecolor
newpath 19373.14 10529.9 moveto
19383.6 10531.56 lineto
19376.46 10523.74 lineto
closepath fill
1 setlinewidth
solid
0 0 0 edgecolor
newpath 19373.14 10529.9 moveto
19383.6 10531.56 lineto
19376.46 10523.74 lineto
closepath stroke
grestore
% Snatch. (2000)->Romeo + Juliet (1996)
gsave
1 setlinewidth
0 0 0 edgecolor
newpath 4429.87 1627.71 moveto
4324.04 1704.6 3907.04 2007.57 3785.63 2095.78 curveto
stroke
0 0 0 edgecolor
newpath 3783.44 2093.04 moveto
3777.41 2101.75 lineto
3787.55 2098.71 lineto
closepath fill
1 setlinewidth
solid
0 0 0 edgecolor
newpath 3783.44 2093.04 moveto
3777.41 2101.75 lineto
3787.55 2098.71 lineto
closepath stroke
grestore
% Pulp Fiction (1994)->Terminator 2 Judgment Day (1991)
gsave
1 setlinewidth
0 0 0 edgecolor
newpath 17563.47 3980.11 moveto
16874.97 3721.71 8463.76 564.93 7687.92 273.76 curveto
stroke
0 0 0 edgecolor
newpath 7688.95 270.4 moveto
7678.36 270.17 lineto
7686.49 276.96 lineto
closepath fill
1 setlinewidth
solid
0 0 0 edgecolor
newpath 7688.95 270.4 moveto
7678.36 270.17 lineto
7686.49 276.96 lineto
closepath stroke
grestore
% Pulp Fiction (1994)->Legally Blonde (2001)
gsave
1 setlinewidth
0 0 0 edgecolor
newpath 17590.76 3978.64 moveto
17419.34 3799.35 16040.03 2356.7 15838.3 2145.71 curveto
stroke
0 0 0 edgecolor
newpath 15840.81 2143.27 moveto
15831.37 2138.46 lineto
15835.75 2148.11 lineto
closepath fill
1 setlinewidth
solid
0 0 0 edgecolor
newpath 15840.81 2143.27 moveto
15831.37 2138.46 lineto
15835.75 2148.11 lineto
closepath stroke
grestore
% Pulp Fiction (1994)->Once Upon a Time in the West (1968)
gsave
1 setlinewidth
0 0 0 edgecolor
newpath 17593.48 3978.41 moveto
17518.19 3884.01 17177.01 3456.17 17088.25 3344.88 curveto
stroke
0 0 0 edgecolor
newpath 17090.81 3342.47 moveto
17081.84 3336.84 lineto
17085.34 3346.84 lineto
closepath fill
1 setlinewidth
solid
0 0 0 edgecolor
newpath 17090.81 3342.47 moveto
17081.84 3336.84 lineto
17085.34 3346.84 lineto
closepath stroke
grestore
% Ice Cold in Alex (1958)
gsave
1 setlinewidth
0 0 0 nodecolor
8484.64 19267.24 121.83 18.38 ellipse_path stroke
0 0 0 nodecolor
14 /Times-Roman set_font
8406.14 19263.64 moveto 157 (Ice Cold in Alex \(1958\)) alignedtext
grestore
% Pulp Fiction (1994)->Ice Cold in Alex (1958)
gsave
1 setlinewidth
0 0 0 edgecolor
newpath 17597.14 4015.47 moveto
17251.16 4594.55 8920.25 18538.14 8501.01 19239.83 curveto
stroke
0 0 0 edgecolor
newpath 8497.92 19238.18 moveto
8495.8 19248.56 lineto
8503.93 19241.77 lineto
closepath fill
1 setlinewidth
solid
0 0 0 edgecolor
newpath 8497.92 19238.18 moveto
8495.8 19248.56 lineto
8503.93 19241.77 lineto
closepath stroke
grestore
% The Conversation (1974)->Schindler's List (1993)
gsave
1 setlinewidth
0 0 0 edgecolor
newpath 1469.69 4739.76 moveto
1414.81 4841.75 1149.43 5334.91 1083.32 5457.76 curveto
stroke
0 0 0 edgecolor
newpath 1080.05 5456.45 moveto
1078.39 5466.91 lineto
1086.22 5459.77 lineto
closepath fill
1 setlinewidth
solid
0 0 0 edgecolor
newpath 1080.05 5456.45 moveto
1078.39 5466.91 lineto
1086.22 5459.77 lineto
closepath stroke
grestore
% Full Metal Jacket (1987)
gsave
1 setlinewidth
0 0 0 nodecolor
727.27 13080.94 126.78 18.38 ellipse_path stroke
0 0 0 nodecolor
14 /Times-Roman set_font
645.27 13077.34 moveto 164 (Full Metal Jacket \(1987\)) alignedtext
grestore
% The Conversation (1974)->Full Metal Jacket (1987)
gsave
1 setlinewidth
0 0 0 edgecolor
newpath 1477.97 4739.98 moveto
1440.1 5160.78 776.52 12533.7 729.85 13052.23 curveto
stroke
0 0 0 edgecolor
newpath 726.36 13052 moveto
728.95 13062.27 lineto
733.33 13052.63 lineto
closepath fill
1 setlinewidth
solid
0 0 0 edgecolor
newpath 726.36 13052 moveto
728.95 13062.27 lineto
733.33 13052.63 lineto
closepath stroke
grestore
% Back to the Future (1985)
gsave
1 setlinewidth
0 0 0 nodecolor
18086.36 14643.29 138.8 18.38 ellipse_path stroke
0 0 0 nodecolor
14 /Times-Roman set_font
17995.86 14639.69 moveto 181 (Back to the Future \(1985\)) alignedtext
grestore
% Back to the Future (1985)->Forrest Gump (1994)
gsave
1 setlinewidth
0 0 0 edgecolor
newpath 18096.32 14624.78 moveto
18151.2 14522.79 18416.59 14029.63 18482.7 13906.77 curveto
stroke
0 0 0 edgecolor
newpath 18485.96 13908.09 moveto
18487.62 13897.62 lineto
18479.8 13904.77 lineto
closepath fill
1 setlinewidth
solid
0 0 0 edgecolor
newpath 18485.96 13908.09 moveto
18487.62 13897.62 lineto
18479.8 13904.77 lineto
closepath stroke
grestore
% Back to the Future (1985)->Papillon (1973)
gsave
1 setlinewidth
0 0 0 edgecolor
newpath 18065.29 14661.7 moveto
17749.28 14937.79 13980.02 18230.89 13613.21 18551.36 curveto
stroke
0 0 0 edgecolor
newpath 13610.64 18548.96 moveto
13605.41 18558.17 lineto
13615.25 18554.23 lineto
closepath fill
1 setlinewidth
solid
0 0 0 edgecolor
newpath 13610.64 18548.96 moveto
13605.41 18558.17 lineto
13615.25 18554.23 lineto
closepath stroke
grestore
% Back to the Future (1985)->The Fugitive (1993)
gsave
1 setlinewidth
0 0 0 edgecolor
newpath 18095.33 14624.66 moveto
18173.06 14463.24 18731.79 13303.04 18825.44 13108.57 curveto
stroke
0 0 0 edgecolor
newpath 18828.6 13110.08 moveto
18829.78 13099.55 lineto
18822.29 13107.04 lineto
closepath fill
1 setlinewidth
solid
0 0 0 edgecolor
newpath 18828.6 13110.08 moveto
18829.78 13099.55 lineto
18822.29 13107.04 lineto
closepath stroke
grestore
% Lawrence of Arabia (1962)
gsave
1 setlinewidth
0 0 0 nodecolor
17608.23 15367.63 142.13 18.38 ellipse_path stroke
0 0 0 nodecolor
14 /Times-Roman set_font
17515.73 15364.03 moveto 185 (Lawrence of Arabia \(1962\)) alignedtext
grestore
% Lawrence of Arabia (1962)->From Russia with Love (1963)
gsave
1 setlinewidth
0 0 0 edgecolor
newpath 17466.03 15367.63 moveto
16003.04 15367.63 3711.53 15367.63 2126 15367.63 curveto
stroke
0 0 0 edgecolor
newpath 2125.97 15364.13 moveto
2115.97 15367.63 lineto
2125.97 15371.13 lineto
closepath fill
1 setlinewidth
solid
0 0 0 edgecolor
newpath 2125.97 15364.13 moveto
2115.97 15367.63 lineto
2125.97 15371.13 lineto
closepath stroke
grestore
% Lawrence of Arabia (1962)->Back to the Future (1985)
gsave
1 setlinewidth
0 0 0 edgecolor
newpath 17620.53 15348.99 moveto
17685.78 15250.15 17991.32 14787.27 18068.58 14670.23 curveto
stroke
0 0 0 edgecolor
newpath 18071.55 14672.07 moveto
18074.14 14661.8 lineto
18065.71 14668.22 lineto
closepath fill
1 setlinewidth
solid
0 0 0 edgecolor
newpath 18071.55 14672.07 moveto
18074.14 14661.8 lineto
18065.71 14668.22 lineto
closepath stroke
grestore
% A Good Year (2006)->Uncle Buck (1989)
gsave
1 setlinewidth
0 0 0 edgecolor
newpath 154.61 10568.03 moveto
224.22 10820.26 974.99 13540.62 1060.47 13850.35 curveto
stroke
0 0 0 edgecolor
newpath 1057.19 13851.63 moveto
1063.23 13860.34 lineto
1063.94 13849.77 lineto
closepath fill
1 setlinewidth
solid
0 0 0 edgecolor
newpath 1057.19 13851.63 moveto
1063.23 13860.34 lineto
1063.94 13849.77 lineto
closepath stroke
grestore
% A Fistful of Dollars (1964)->Dr. No (1962)
gsave
1 setlinewidth
0 0 0 edgecolor
newpath 14397.1 1182.98 moveto
14515.43 1253.68 14942.96 1509.12 15073.47 1587.09 curveto
stroke
0 0 0 edgecolor
newpath 15071.96 1590.27 moveto
15082.34 1592.39 lineto
15075.55 1584.26 lineto
closepath fill
1 setlinewidth
solid
0 0 0 edgecolor
newpath 15071.96 1590.27 moveto
15082.34 1592.39 lineto
15075.55 1584.26 lineto
closepath stroke
grestore
% A Fistful of Dollars (1964)->The Great Escape (1963)
gsave
1 setlinewidth
0 0 0 edgecolor
newpath 14329.32 1146.79 moveto
14200.4 1084.71 13772.83 878.8 13630.84 810.42 curveto
stroke
0 0 0 edgecolor
newpath 13632.04 807.11 moveto
13621.51 805.93 lineto
13629 813.42 lineto
closepath fill
1 setlinewidth
solid
0 0 0 edgecolor
newpath 13632.04 807.11 moveto
13621.51 805.93 lineto
13629 813.42 lineto
closepath stroke
grestore
% A Fistful of Dollars (1964)->Play Misty for Me (1971)
gsave
1 setlinewidth
0 0 0 edgecolor
newpath 14325.08 1147 moveto
14104.12 1052.55 13065.26 608.52 12822.7 504.85 curveto
stroke
0 0 0 edgecolor
newpath 12823.98 501.59 moveto
12813.41 500.88 lineto
12821.23 508.03 lineto
closepath fill
1 setlinewidth
solid
0 0 0 edgecolor
newpath 12823.98 501.59 moveto
12813.41 500.88 lineto
12821.23 508.03 lineto
closepath stroke
grestore
% Jaws (1975)
gsave
1 setlinewidth
0 0 0 nodecolor
3752.3 17244.54 70.21 18.38 ellipse_path stroke
0 0 0 nodecolor
14 /Times-Roman set_font
3710.3 17240.94 moveto 84 (Jaws \(1975\)) alignedtext
grestore
% Jaws (1975)->Blazing Saddles (1974)
gsave
1 setlinewidth
0 0 0 edgecolor
newpath 3776.47 17262.1 moveto
3881.62 17338.49 4299.39 17642.03 4421.05 17730.42 curveto
stroke
0 0 0 edgecolor
newpath 4419.14 17733.36 moveto
4429.29 17736.4 lineto
4423.26 17727.69 lineto
closepath fill
1 setlinewidth
solid
0 0 0 edgecolor
newpath 4419.14 17733.36 moveto
4429.29 17736.4 lineto
4423.26 17727.69 lineto
closepath stroke
grestore
% Jaws (1975)->From Russia with Love (1963)
gsave
1 setlinewidth
0 0 0 edgecolor
newpath 3735.11 17226.56 moveto
3564.96 17048.6 2184.32 15604.57 1982.4 15393.37 curveto
stroke
0 0 0 edgecolor
newpath 1984.89 15390.91 moveto
1975.45 15386.11 lineto
1979.83 15395.75 lineto
closepath fill
1 setlinewidth
solid
0 0 0 edgecolor
newpath 1984.89 15390.91 moveto
1975.45 15386.11 lineto
1979.83 15395.75 lineto
closepath stroke
grestore
% Jaws (1975)->Clear and Present Danger (1994)
gsave
1 setlinewidth
0 0 0 edgecolor
newpath 3776.27 17227.12 moveto
4425.23 16755.63 18040.44 6863.6 18805.26 6307.92 curveto
stroke
0 0 0 edgecolor
newpath 18807.38 6310.71 moveto
18813.42 6302 lineto
18803.27 6305.04 lineto
closepath fill
1 setlinewidth
solid
0 0 0 edgecolor
newpath 18807.38 6310.71 moveto
18813.42 6302 lineto
18803.27 6305.04 lineto
closepath stroke
grestore
% Jaws (1975)->Spirited Away (2001)
gsave
1 setlinewidth
0 0 0 edgecolor
newpath 3789.28 17228.73 moveto
4598.53 16882.84 18428.36 10971.69 19366.55 10570.69 curveto
stroke
0 0 0 edgecolor
newpath 19367.93 10573.9 moveto
19375.75 10566.75 lineto
19365.18 10567.47 lineto
closepath fill
1 setlinewidth
solid
0 0 0 edgecolor
newpath 19367.93 10573.9 moveto
19375.75 10566.75 lineto
19365.18 10567.47 lineto
closepath stroke
grestore
% Jaws (1975)->Just Like Heaven (2005)
gsave
1 setlinewidth
0 0 0 edgecolor
newpath 3733.61 17226.67 moveto
3592.27 17091.53 2692.56 16231.33 2525.57 16071.67 curveto
stroke
0 0 0 edgecolor
newpath 2527.82 16068.98 moveto
2518.18 16064.6 lineto
2522.99 16074.04 lineto
closepath fill
1 setlinewidth
solid
0 0 0 edgecolor
newpath 2527.82 16068.98 moveto
2518.18 16064.6 lineto
2522.99 16074.04 lineto
closepath stroke
grestore
% Paint Your Wagon (1969)->The Good, the Bad and the Ugly (1966)
gsave
1 setlinewidth
0 0 0 edgecolor
newpath 6077.67 775.1 moveto
6708.35 689.67 10248.28 210.15 10957.62 114.06 curveto
stroke
0 0 0 edgecolor
newpath 10958.17 117.52 moveto
10967.61 112.71 lineto
10957.23 110.58 lineto
closepath fill
1 setlinewidth
solid
0 0 0 edgecolor
newpath 10958.17 117.52 moveto
10967.61 112.71 lineto
10957.23 110.58 lineto
closepath stroke
grestore
% Paint Your Wagon (1969)->Schindler's List (1993)
gsave
1 setlinewidth
0 0 0 edgecolor
newpath 5962.19 806.57 moveto
5643.21 1111.54 1469.3 5102.2 1095.16 5459.92 curveto
stroke
0 0 0 edgecolor
newpath 1092.55 5457.58 moveto
1087.74 5467.02 lineto
1097.38 5462.64 lineto
closepath fill
1 setlinewidth
solid
0 0 0 edgecolor
newpath 1092.55 5457.58 moveto
1087.74 5467.02 lineto
1097.38 5462.64 lineto
closepath stroke
grestore
% Aliens (1986)->Ice Cold in Alex (1958)
gsave
1 setlinewidth
0 0 0 edgecolor
newpath 6850.29 18894.21 moveto
7100.98 18951.43 8116.85 19183.29 8406.94 19249.5 curveto
stroke
0 0 0 edgecolor
newpath 8406.42 19252.98 moveto
8416.95 19251.79 lineto
8407.98 19246.15 lineto
closepath fill
1 setlinewidth
solid
0 0 0 edgecolor
newpath 8406.42 19252.98 moveto
8416.95 19251.79 lineto
8407.98 19246.15 lineto
closepath stroke
grestore
% Ringu (1998)->Garden State (2004)
gsave
1 setlinewidth
0 0 0 edgecolor
newpath 16475.24 16654.97 moveto
16637.65 16274.98 19245.1 10174.55 19443.57 9710.21 curveto
stroke
0 0 0 edgecolor
newpath 19446.86 9711.43 moveto
19447.57 9700.86 lineto
19440.42 9708.68 lineto
closepath fill
1 setlinewidth
solid
0 0 0 edgecolor
newpath 19446.86 9711.43 moveto
19447.57 9700.86 lineto
19440.42 9708.68 lineto
closepath stroke
grestore
% The Big Lebowski (1998)->Dr. No (1962)
gsave
1 setlinewidth
0 0 0 edgecolor
newpath 19099.92 12236.79 moveto
18919.92 11757.2 15341.02 2221.23 15122.04 1637.78 curveto
stroke
0 0 0 edgecolor
newpath 15125.31 1636.53 moveto
15118.52 1628.4 lineto
15118.76 1638.99 lineto
closepath fill
1 setlinewidth
solid
0 0 0 edgecolor
newpath 15125.31 1636.53 moveto
15118.52 1628.4 lineto
15118.76 1638.99 lineto
closepath stroke
grestore
% The Big Lebowski (1998)->From Russia with Love (1963)
gsave
1 setlinewidth
0 0 0 edgecolor
newpath 19025.7 12270.25 moveto
17811.24 12490.65 3370.11 15111.33 2053.71 15350.22 curveto
stroke
0 0 0 edgecolor
newpath 2053.04 15346.78 moveto
2043.82 15352.01 lineto
2054.29 15353.67 lineto
closepath fill
1 setlinewidth
solid
0 0 0 edgecolor
newpath 2053.04 15346.78 moveto
2043.82 15352.01 lineto
2054.29 15353.67 lineto
closepath stroke
grestore
% The Big Lebowski (1998)->The Pianist (2002)
gsave
1 setlinewidth
0 0 0 edgecolor
newpath 19111.25 12236.65 moveto
19136.31 12126.85 19263.35 11570.26 19293.6 11437.72 curveto
stroke
0 0 0 edgecolor
newpath 19297.03 11438.43 moveto
19295.84 11427.9 lineto
19290.2 11436.87 lineto
closepath fill
1 setlinewidth
solid
0 0 0 edgecolor
newpath 19297.03 11438.43 moveto
19295.84 11427.9 lineto
19290.2 11436.87 lineto
closepath stroke
grestore
% The Big Lebowski (1998)->The Fugitive (1993)
gsave
1 setlinewidth
0 0 0 edgecolor
newpath 19100.84 12274.3 moveto
19065.8 12382.13 18890.4 12921.96 18847.99 13052.49 curveto
stroke
0 0 0 edgecolor
newpath 18844.6 13051.59 moveto
18844.84 13062.18 lineto
18851.26 13053.75 lineto
closepath fill
1 setlinewidth
solid
0 0 0 edgecolor
newpath 18844.6 13051.59 moveto
18844.84 13062.18 lineto
18851.26 13053.75 lineto
closepath stroke
grestore
% Ice Cold in Alex (1958)->The Silence of the Lambs (1991)
gsave
1 setlinewidth
0 0 0 edgecolor
newpath 8589.77 19276.7 moveto
8744.61 19290.63 9034.34 19316.71 9207.66 19332.31 curveto
stroke
0 0 0 edgecolor
newpath 9207.61 19335.82 moveto
9217.88 19333.23 lineto
9208.24 19328.85 lineto
closepath fill
1 setlinewidth
solid
0 0 0 edgecolor
newpath 9207.61 19335.82 moveto
9217.88 19333.23 lineto
9208.24 19328.85 lineto
closepath stroke
grestore
% Ice Cold in Alex (1958)->The Shawshank Redemption (1994)
gsave
1 setlinewidth
0 0 0 edgecolor
newpath 8406.21 19253 moveto
8250.36 19224.72 7901.97 19161.5 7730.24 19130.33 curveto
stroke
0 0 0 edgecolor
newpath 7730.66 19126.85 moveto
7720.19 19128.51 lineto
7729.41 19133.74 lineto
closepath fill
1 setlinewidth
solid
0 0 0 edgecolor
newpath 7730.66 19126.85 moveto
7720.19 19128.51 lineto
7729.41 19133.74 lineto
closepath stroke
grestore
% Spirited Away (2001)->Raiders of the Lost Ark (1981)
gsave
1 setlinewidth
0 0 0 edgecolor
newpath 19414.91 10530.8 moveto
19391.91 10275.2 19137.96 7453.59 19109.53 7137.72 curveto
stroke
0 0 0 edgecolor
newpath 19113 7137.2 moveto
19108.61 7127.55 lineto
19106.02 7137.83 lineto
closepath fill
1 setlinewidth
solid
0 0 0 edgecolor
newpath 19113 7137.2 moveto
19108.61 7127.55 lineto
19106.02 7137.83 lineto
closepath stroke
grestore
% Spirited Away (2001)->Goldfinger (1964)
gsave
1 setlinewidth
0 0 0 edgecolor
newpath 19398.86 10567.83 moveto
18988.81 10996.72 11591.32 18733.88 11106.33 19241.14 curveto
stroke
0 0 0 edgecolor
newpath 11103.46 19239.08 moveto
11099.08 19248.72 lineto
11108.52 19243.91 lineto
closepath fill
1 setlinewidth
solid
0 0 0 edgecolor
newpath 11103.46 19239.08 moveto
11099.08 19248.72 lineto
11108.52 19243.91 lineto
closepath stroke
grestore
% Spirited Away (2001)->The Fugitive (1993)
gsave
1 setlinewidth
0 0 0 edgecolor
newpath 19412.34 10567.87 moveto
19363.38 10782.35 18905.66 12787.76 18845.3 13052.21 curveto
stroke
0 0 0 edgecolor
newpath 18841.84 13051.66 moveto
18843.03 13062.19 lineto
18848.66 13053.22 lineto
closepath fill
1 setlinewidth
solid
0 0 0 edgecolor
newpath 18841.84 13051.66 moveto
18843.03 13062.19 lineto
18848.66 13053.22 lineto
closepath stroke
grestore
% Garden State (2004)->Indiana Jones and the Temple of Doom (1984)
gsave
1 setlinewidth
0 0 0 edgecolor
newpath 19397.38 9698.31 moveto
18325.09 9994.24 2765.08 14288.54 1554.25 14622.7 curveto
stroke
0 0 0 edgecolor
newpath 1553.07 14619.4 moveto
1544.36 14625.43 lineto
1554.93 14626.15 lineto
closepath fill
1 setlinewidth
solid
0 0 0 edgecolor
newpath 1553.07 14619.4 moveto
1544.36 14625.43 lineto
1554.93 14626.15 lineto
closepath stroke
grestore
% Garden State (2004)->The Pianist (2002)
gsave
1 setlinewidth
0 0 0 edgecolor
newpath 19453.85 9700.78 moveto
19438.48 9871.53 19321.59 11170.32 19302.66 11380.63 curveto
stroke
0 0 0 edgecolor
newpath 19299.17 11380.33 moveto
19301.76 11390.61 lineto
19306.14 11380.96 lineto
closepath fill
1 setlinewidth
solid
0 0 0 edgecolor
newpath 19299.17 11380.33 moveto
19301.76 11390.61 lineto
19306.14 11380.96 lineto
closepath stroke
grestore
% Garden State (2004)->Snatch. (2000)
gsave
1 setlinewidth
0 0 0 edgecolor
newpath 19422.48 9664.49 moveto
18670.72 9259.95 5332.18 2082.18 4495.55 1631.97 curveto
stroke
0 0 0 edgecolor
newpath 4497.02 1628.78 moveto
4486.56 1627.13 lineto
4493.7 1634.95 lineto
closepath fill
1 setlinewidth
solid
0 0 0 edgecolor
newpath 4497.02 1628.78 moveto
4486.56 1627.13 lineto
4493.7 1634.95 lineto
closepath stroke
grestore
% Garden State (2004)->Back to the Future (1985)
gsave
1 setlinewidth
0 0 0 edgecolor
newpath 19450.35 9700.98 moveto
19363.21 10016.73 18201.05 14227.73 18094.21 14614.83 curveto
stroke
0 0 0 edgecolor
newpath 18090.78 14614.12 moveto
18091.49 14624.69 lineto
18097.53 14615.98 lineto
closepath fill
1 setlinewidth
solid
0 0 0 edgecolor
newpath 18090.78 14614.12 moveto
18091.49 14624.69 lineto
18097.53 14615.98 lineto
closepath stroke
grestore
% The Matrix (1999)
gsave
1 setlinewidth
0 0 0 nodecolor
19628.63 9682.27 101.12 18.38 ellipse_path stroke
0 0 0 nodecolor
14 /Times-Roman set_font
19565.13 9678.67 moveto 127 (The Matrix \(1999\)) alignedtext
grestore
% Garden State (2004)->The Matrix (1999)
gsave
1 setlinewidth
0 0 0 edgecolor
newpath 19569.54 9682.27 moveto
19569.6 9682.27 19569.67 9682.27 19569.73 9682.27 curveto
stroke
0 0 0 edgecolor
newpath 19559.92 9685.77 moveto
19569.92 9682.27 lineto
19559.92 9678.77 lineto
closepath fill
1 setlinewidth
solid
0 0 0 edgecolor
newpath 19559.92 9685.77 moveto
19569.92 9682.27 lineto
19559.92 9678.77 lineto
closepath stroke
grestore
% Pan's Labyrinth (2006)->The Shawshank Redemption (1994)
gsave
1 setlinewidth
0 0 0 edgecolor
newpath 6794.87 501.68 moveto
6823.71 1143.79 7593.44 18283.27 7629.37 19083.35 curveto
stroke
0 0 0 edgecolor
newpath 7625.88 19083.63 moveto
7629.83 19093.47 lineto
7632.88 19083.32 lineto
closepath fill
1 setlinewidth
solid
0 0 0 edgecolor
newpath 7625.88 19083.63 moveto
7629.83 19093.47 lineto
7632.88 19083.32 lineto
closepath stroke
grestore
% Pan's Labyrinth (2006)->Paint Your Wagon (1969)
gsave
1 setlinewidth
0 0 0 edgecolor
newpath 6748.02 500.44 moveto
6608.4 552.84 6189.87 709.92 6037.62 767.05 curveto
stroke
0 0 0 edgecolor
newpath 6036.12 763.88 moveto
6027.99 770.67 lineto
6038.58 770.43 lineto
closepath fill
1 setlinewidth
solid
0 0 0 edgecolor
newpath 6036.12 763.88 moveto
6027.99 770.67 lineto
6038.58 770.43 lineto
closepath stroke
grestore
% Pan's Labyrinth (2006)->The Fugitive (1993)
gsave
1 setlinewidth
0 0 0 edgecolor
newpath 6811.61 501.54 moveto
7309.47 1022.26 18224.94 12438.95 18814.01 13055.07 curveto
stroke
0 0 0 edgecolor
newpath 18811.76 13057.78 moveto
18821.2 13062.59 lineto
18816.82 13052.95 lineto
closepath fill
1 setlinewidth
solid
0 0 0 edgecolor
newpath 18811.76 13057.78 moveto
18821.2 13062.59 lineto
18816.82 13052.95 lineto
closepath stroke
grestore
% Full Metal Jacket (1987)->Taken (2008)
gsave
1 setlinewidth
0 0 0 edgecolor
newpath 722.17 13062.46 moveto
675.97 12895.08 330.39 11642.88 273.78 11437.75 curveto
stroke
0 0 0 edgecolor
newpath 277.12 11436.72 moveto
271.09 11428.01 lineto
270.37 11438.58 lineto
closepath fill
1 setlinewidth
solid
0 0 0 edgecolor
newpath 277.12 11436.72 moveto
271.09 11428.01 lineto
270.37 11438.58 lineto
closepath stroke
grestore
% Full Metal Jacket (1987)->Planes, Trains & Automobiles (1987)
gsave
1 setlinewidth
0 0 0 edgecolor
newpath 721.16 13062.15 moveto
686.13 12954.33 510.73 12414.5 468.31 12283.96 curveto
stroke
0 0 0 edgecolor
newpath 471.58 12282.7 moveto
465.17 12274.27 lineto
464.93 12284.87 lineto
closepath fill
1 setlinewidth
solid
0 0 0 edgecolor
newpath 471.58 12282.7 moveto
465.17 12274.27 lineto
464.93 12284.87 lineto
closepath stroke
grestore
% Full Metal Jacket (1987)->Just Like Heaven (2005)
gsave
1 setlinewidth
0 0 0 edgecolor
newpath 738.35 13099.49 moveto
878.92 13334.77 2312.34 15733.91 2482.45 16018.62 curveto
stroke
0 0 0 edgecolor
newpath 2479.62 16020.71 moveto
2487.75 16027.5 lineto
2485.63 16017.12 lineto
closepath fill
1 setlinewidth
solid
0 0 0 edgecolor
newpath 2479.62 16020.71 moveto
2487.75 16027.5 lineto
2485.63 16017.12 lineto
closepath stroke
grestore
% Apollo 13 (1995)->Raiders of the Lost Ark (1981)
gsave
1 setlinewidth
0 0 0 edgecolor
newpath 19413.2 8796.65 moveto
19382.38 8626.8 19149.76 7344.94 19112.09 7137.38 curveto
stroke
0 0 0 edgecolor
newpath 19115.53 7136.75 moveto
19110.3 7127.53 lineto
19108.65 7138 lineto
closepath fill
1 setlinewidth
solid
0 0 0 edgecolor
newpath 19115.53 7136.75 moveto
19110.3 7127.53 lineto
19108.65 7138 lineto
closepath stroke
grestore
% The Breakfast Club (1985)
gsave
1 setlinewidth
0 0 0 nodecolor
19300.07 7955.17 140.92 18.38 ellipse_path stroke
0 0 0 nodecolor
14 /Times-Roman set_font
19208.07 7951.57 moveto 184 (The Breakfast Club \(1985\)) alignedtext
grestore
% Apollo 13 (1995)->The Breakfast Club (1985)
gsave
1 setlinewidth
0 0 0 edgecolor
newpath 19414.03 8796.47 moveto
19399.03 8685.73 19322.11 8117.82 19303.93 7983.62 curveto
stroke
0 0 0 edgecolor
newpath 19307.39 7983.13 moveto
19302.58 7973.69 lineto
19300.46 7984.07 lineto
closepath fill
1 setlinewidth
solid
0 0 0 edgecolor
newpath 19307.39 7983.13 moveto
19302.58 7973.69 lineto
19300.46 7984.07 lineto
closepath stroke
grestore
% Scarface (1983)
gsave
1 setlinewidth
0 0 0 nodecolor
17187.88 16151.71 87.89 18.38 ellipse_path stroke
0 0 0 nodecolor
14 /Times-Roman set_font
17133.38 16148.11 moveto 109 (Scarface \(1983\)) alignedtext
grestore
% Scarface (1983)->Catch Me If You Can (2002)
gsave
1 setlinewidth
0 0 0 edgecolor
newpath 17167.12 16133.57 moveto
17147.53 16116.46 17118 16090.66 17096.09 16071.52 curveto
stroke
0 0 0 edgecolor
newpath 17098.23 16068.74 moveto
17088.4 16064.8 lineto
17093.63 16074.01 lineto
closepath fill
1 setlinewidth
solid
0 0 0 edgecolor
newpath 17098.23 16068.74 moveto
17088.4 16064.8 lineto
17093.63 16074.01 lineto
closepath stroke
grestore
% The Departed (2006)->The Wicker Man (1973)
gsave
1 setlinewidth
0 0 0 edgecolor
newpath 470.26 7090.29 moveto
647.38 6793.85 2869.46 3074.7 3082.34 2718.41 curveto
stroke
0 0 0 edgecolor
newpath 3085.4 2720.11 moveto
3087.53 2709.73 lineto
3079.39 2716.52 lineto
closepath fill
1 setlinewidth
solid
0 0 0 edgecolor
newpath 3085.4 2720.11 moveto
3087.53 2709.73 lineto
3079.39 2716.52 lineto
closepath stroke
grestore
% The Shining (1980)->Just Like Heaven (2005)
gsave
1 setlinewidth
0 0 0 edgecolor
newpath 3081.07 16655.07 moveto
2995.47 16565.53 2623.11 16176.08 2523.5 16071.9 curveto
stroke
0 0 0 edgecolor
newpath 2525.98 16069.43 moveto
2516.54 16064.62 lineto
2520.93 16074.27 lineto
closepath fill
1 setlinewidth
solid
0 0 0 edgecolor
newpath 2525.98 16069.43 moveto
2516.54 16064.62 lineto
2520.93 16074.27 lineto
closepath stroke
grestore
% North by Northwest (1959)
gsave
1 setlinewidth
0 0 0 nodecolor
16091.4 2064.28 145.16 18.38 ellipse_path stroke
0 0 0 nodecolor
14 /Times-Roman set_font
15996.4 2060.68 moveto 190 (North by Northwest \(1959\)) alignedtext
grestore
% North by Northwest (1959)->Legally Blonde (2001)
gsave
1 setlinewidth
0 0 0 edgecolor
newpath 16013.31 2079.95 moveto
15977.09 2087.22 15934.01 2095.86 15897.15 2103.26 curveto
stroke
0 0 0 edgecolor
newpath 15896.05 2099.91 moveto
15886.93 2105.31 lineto
15897.42 2106.77 lineto
closepath fill
1 setlinewidth
solid
0 0 0 edgecolor
newpath 15896.05 2099.91 moveto
15886.93 2105.31 lineto
15897.42 2106.77 lineto
closepath stroke
grestore
% The Breakfast Club (1985)->Blazing Saddles (1974)
gsave
1 setlinewidth
0 0 0 edgecolor
newpath 19272.38 7973.45 moveto
18583.64 8428.09 5270.3 17216.15 4490.15 17731.12 curveto
stroke
0 0 0 edgecolor
newpath 4488.22 17728.2 moveto
4481.8 17736.63 lineto
4492.08 17734.04 lineto
closepath fill
1 setlinewidth
solid
0 0 0 edgecolor
newpath 4488.22 17728.2 moveto
4481.8 17736.63 lineto
4492.08 17734.04 lineto
closepath stroke
grestore
% Requiem for a Dream (2000)
gsave
1 setlinewidth
0 0 0 nodecolor
8484.64 97.3 150.82 18.38 ellipse_path stroke
0 0 0 nodecolor
14 /Times-Roman set_font
8385.64 93.7 moveto 198 (Requiem for a Dream \(2000\)) alignedtext
grestore
% Requiem for a Dream (2000)->Terminator 2 Judgment Day (1991)
gsave
1 setlinewidth
0 0 0 edgecolor
newpath 8400.02 112.65 moveto
8241.19 141.48 7899.15 203.55 7729.81 234.28 curveto
stroke
0 0 0 edgecolor
newpath 7729.12 230.85 moveto
7719.9 236.08 lineto
7730.37 237.74 lineto
closepath fill
1 setlinewidth
solid
0 0 0 edgecolor
newpath 7729.12 230.85 moveto
7719.9 236.08 lineto
7730.37 237.74 lineto
closepath stroke
grestore
% Requiem for a Dream (2000)->Once Upon a Time in the West (1968)
gsave
1 setlinewidth
0 0 0 edgecolor
newpath 8531.59 114.92 moveto
9178.18 357.59 16296.52 3029.15 17009.61 3296.78 curveto
stroke
0 0 0 edgecolor
newpath 17008.57 3300.12 moveto
17019.16 3300.36 lineto
17011.03 3293.57 lineto
closepath fill
1 setlinewidth
solid
0 0 0 edgecolor
newpath 17008.57 3300.12 moveto
17019.16 3300.36 lineto
17011.03 3293.57 lineto
closepath stroke
grestore
endpage
showpage
grestore
%%PageTrailer
%%EndPage: 1
%%Trailer
%%Pages: 1
%%BoundingBox: 36 36 19775 19409
end
restore
%%EOF
